G04 #@! TF.GenerationSoftware,KiCad,Pcbnew,5.0.1-33cea8e~68~ubuntu18.04.1*
G04 #@! TF.CreationDate,2018-11-09T12:51:40-05:00*
G04 #@! TF.ProjectId,ltc-battery-power,6C74632D626174746572792D706F7765,rev?*
G04 #@! TF.SameCoordinates,Original*
G04 #@! TF.FileFunction,Copper,L2,Bot,Signal*
G04 #@! TF.FilePolarity,Positive*
%FSLAX46Y46*%
G04 Gerber Fmt 4.6, Leading zero omitted, Abs format (unit mm)*
G04 Created by KiCad (PCBNEW 5.0.1-33cea8e~68~ubuntu18.04.1) date Fri 09 Nov 2018 12:51:40 PM EST*
%MOMM*%
%LPD*%
G01*
G04 APERTURE LIST*
G04 #@! TA.AperFunction,ComponentPad*
%ADD10R,1.700000X1.700000*%
G04 #@! TD*
G04 #@! TA.AperFunction,ComponentPad*
%ADD11O,1.700000X1.700000*%
G04 #@! TD*
G04 #@! TA.AperFunction,ComponentPad*
%ADD12R,1.600000X1.600000*%
G04 #@! TD*
G04 #@! TA.AperFunction,ComponentPad*
%ADD13O,1.600000X1.600000*%
G04 #@! TD*
G04 #@! TA.AperFunction,ViaPad*
%ADD14C,2.000000*%
G04 #@! TD*
G04 #@! TA.AperFunction,Conductor*
%ADD15C,0.200000*%
G04 #@! TD*
G04 APERTURE END LIST*
D10*
G04 #@! TO.P,J1,1*
G04 #@! TO.N,/V_SOLAR*
X135000000Y-116025000D03*
D11*
G04 #@! TO.P,J1,2*
G04 #@! TO.N,/V_BAT*
X135000000Y-113485000D03*
G04 #@! TO.P,J1,3*
G04 #@! TO.N,/V_OUT*
X135000000Y-110945000D03*
G04 #@! TO.P,J1,4*
G04 #@! TO.N,Net-(J1-Pad4)*
X135000000Y-108405000D03*
G04 #@! TO.P,J1,5*
G04 #@! TO.N,Net-(J1-Pad5)*
X135000000Y-105865000D03*
G04 #@! TO.P,J1,6*
G04 #@! TO.N,GND*
X135000000Y-103325000D03*
G04 #@! TD*
D12*
G04 #@! TO.P,D1,1*
G04 #@! TO.N,/V_SOLAR_PP*
X141200000Y-114300000D03*
D13*
G04 #@! TO.P,D1,2*
G04 #@! TO.N,GND*
X141200000Y-106680000D03*
G04 #@! TD*
D14*
G04 #@! TO.N,GND*
X161100000Y-103300000D03*
X155850000Y-117250000D03*
X138400000Y-114250000D03*
X142200000Y-103750000D03*
X154850000Y-104450000D03*
X144000000Y-116400000D03*
G04 #@! TD*
D15*
G04 #@! TO.N,GND*
G36*
X163625001Y-118625000D02*
X131375000Y-118625000D01*
X131375000Y-115175000D01*
X133844123Y-115175000D01*
X133844123Y-116875000D01*
X133867407Y-116992054D01*
X133933712Y-117091288D01*
X134032946Y-117157593D01*
X134150000Y-117180877D01*
X135850000Y-117180877D01*
X135967054Y-117157593D01*
X136066288Y-117091288D01*
X136132593Y-116992054D01*
X136155877Y-116875000D01*
X136155877Y-115175000D01*
X136132593Y-115057946D01*
X136066288Y-114958712D01*
X135967054Y-114892407D01*
X135850000Y-114869123D01*
X134150000Y-114869123D01*
X134032946Y-114892407D01*
X133933712Y-114958712D01*
X133867407Y-115057946D01*
X133844123Y-115175000D01*
X131375000Y-115175000D01*
X131375000Y-113485000D01*
X133827471Y-113485000D01*
X133916724Y-113933707D01*
X134170897Y-114314103D01*
X134551293Y-114568276D01*
X134886739Y-114635000D01*
X135113261Y-114635000D01*
X135448707Y-114568276D01*
X135829103Y-114314103D01*
X136083276Y-113933707D01*
X136169545Y-113500000D01*
X140094123Y-113500000D01*
X140094123Y-115100000D01*
X140117407Y-115217054D01*
X140183712Y-115316288D01*
X140282946Y-115382593D01*
X140400000Y-115405877D01*
X142000000Y-115405877D01*
X142117054Y-115382593D01*
X142216288Y-115316288D01*
X142282593Y-115217054D01*
X142305877Y-115100000D01*
X142305877Y-113500000D01*
X142282593Y-113382946D01*
X142216288Y-113283712D01*
X142117054Y-113217407D01*
X142000000Y-113194123D01*
X140400000Y-113194123D01*
X140282946Y-113217407D01*
X140183712Y-113283712D01*
X140117407Y-113382946D01*
X140094123Y-113500000D01*
X136169545Y-113500000D01*
X136172529Y-113485000D01*
X136083276Y-113036293D01*
X135829103Y-112655897D01*
X135448707Y-112401724D01*
X135113261Y-112335000D01*
X134886739Y-112335000D01*
X134551293Y-112401724D01*
X134170897Y-112655897D01*
X133916724Y-113036293D01*
X133827471Y-113485000D01*
X131375000Y-113485000D01*
X131375000Y-110945000D01*
X133827471Y-110945000D01*
X133916724Y-111393707D01*
X134170897Y-111774103D01*
X134551293Y-112028276D01*
X134886739Y-112095000D01*
X135113261Y-112095000D01*
X135448707Y-112028276D01*
X135829103Y-111774103D01*
X136083276Y-111393707D01*
X136172529Y-110945000D01*
X136083276Y-110496293D01*
X135829103Y-110115897D01*
X135448707Y-109861724D01*
X135113261Y-109795000D01*
X134886739Y-109795000D01*
X134551293Y-109861724D01*
X134170897Y-110115897D01*
X133916724Y-110496293D01*
X133827471Y-110945000D01*
X131375000Y-110945000D01*
X131375000Y-108405000D01*
X133827471Y-108405000D01*
X133916724Y-108853707D01*
X134170897Y-109234103D01*
X134551293Y-109488276D01*
X134886739Y-109555000D01*
X135113261Y-109555000D01*
X135448707Y-109488276D01*
X135829103Y-109234103D01*
X136083276Y-108853707D01*
X136172529Y-108405000D01*
X136083276Y-107956293D01*
X135829103Y-107575897D01*
X135448707Y-107321724D01*
X135113261Y-107255000D01*
X134886739Y-107255000D01*
X134551293Y-107321724D01*
X134170897Y-107575897D01*
X133916724Y-107956293D01*
X133827471Y-108405000D01*
X131375000Y-108405000D01*
X131375000Y-105865000D01*
X133827471Y-105865000D01*
X133916724Y-106313707D01*
X134170897Y-106694103D01*
X134551293Y-106948276D01*
X134886739Y-107015000D01*
X135113261Y-107015000D01*
X135431458Y-106951707D01*
X140123758Y-106951707D01*
X140309660Y-107342885D01*
X140631108Y-107633144D01*
X140928295Y-107756232D01*
X141100000Y-107707646D01*
X141100000Y-106780000D01*
X141300000Y-106780000D01*
X141300000Y-107707646D01*
X141471705Y-107756232D01*
X141768892Y-107633144D01*
X142090340Y-107342885D01*
X142276242Y-106951707D01*
X142227996Y-106780000D01*
X141300000Y-106780000D01*
X141100000Y-106780000D01*
X140172004Y-106780000D01*
X140123758Y-106951707D01*
X135431458Y-106951707D01*
X135448707Y-106948276D01*
X135829103Y-106694103D01*
X136020075Y-106408293D01*
X140123758Y-106408293D01*
X140172004Y-106580000D01*
X141100000Y-106580000D01*
X141100000Y-105652354D01*
X141300000Y-105652354D01*
X141300000Y-106580000D01*
X142227996Y-106580000D01*
X142276242Y-106408293D01*
X142090340Y-106017115D01*
X141768892Y-105726856D01*
X141471705Y-105603768D01*
X141300000Y-105652354D01*
X141100000Y-105652354D01*
X140928295Y-105603768D01*
X140631108Y-105726856D01*
X140309660Y-106017115D01*
X140123758Y-106408293D01*
X136020075Y-106408293D01*
X136083276Y-106313707D01*
X136172529Y-105865000D01*
X136083276Y-105416293D01*
X135829103Y-105035897D01*
X135448707Y-104781724D01*
X135113261Y-104715000D01*
X134886739Y-104715000D01*
X134551293Y-104781724D01*
X134170897Y-105035897D01*
X133916724Y-105416293D01*
X133827471Y-105865000D01*
X131375000Y-105865000D01*
X131375000Y-103604557D01*
X133874190Y-103604557D01*
X134006248Y-103923397D01*
X134310889Y-104258139D01*
X134720441Y-104450819D01*
X134900000Y-104403191D01*
X134900000Y-103425000D01*
X135100000Y-103425000D01*
X135100000Y-104403191D01*
X135279559Y-104450819D01*
X135689111Y-104258139D01*
X135993752Y-103923397D01*
X136125810Y-103604557D01*
X136077871Y-103425000D01*
X135100000Y-103425000D01*
X134900000Y-103425000D01*
X133922129Y-103425000D01*
X133874190Y-103604557D01*
X131375000Y-103604557D01*
X131375000Y-103045443D01*
X133874190Y-103045443D01*
X133922129Y-103225000D01*
X134900000Y-103225000D01*
X134900000Y-102246809D01*
X135100000Y-102246809D01*
X135100000Y-103225000D01*
X136077871Y-103225000D01*
X136125810Y-103045443D01*
X135993752Y-102726603D01*
X135689111Y-102391861D01*
X135279559Y-102199181D01*
X135100000Y-102246809D01*
X134900000Y-102246809D01*
X134720441Y-102199181D01*
X134310889Y-102391861D01*
X134006248Y-102726603D01*
X133874190Y-103045443D01*
X131375000Y-103045443D01*
X131375000Y-100875000D01*
X163625000Y-100875000D01*
X163625001Y-118625000D01*
X163625001Y-118625000D01*
G37*
X163625001Y-118625000D02*
X131375000Y-118625000D01*
X131375000Y-115175000D01*
X133844123Y-115175000D01*
X133844123Y-116875000D01*
X133867407Y-116992054D01*
X133933712Y-117091288D01*
X134032946Y-117157593D01*
X134150000Y-117180877D01*
X135850000Y-117180877D01*
X135967054Y-117157593D01*
X136066288Y-117091288D01*
X136132593Y-116992054D01*
X136155877Y-116875000D01*
X136155877Y-115175000D01*
X136132593Y-115057946D01*
X136066288Y-114958712D01*
X135967054Y-114892407D01*
X135850000Y-114869123D01*
X134150000Y-114869123D01*
X134032946Y-114892407D01*
X133933712Y-114958712D01*
X133867407Y-115057946D01*
X133844123Y-115175000D01*
X131375000Y-115175000D01*
X131375000Y-113485000D01*
X133827471Y-113485000D01*
X133916724Y-113933707D01*
X134170897Y-114314103D01*
X134551293Y-114568276D01*
X134886739Y-114635000D01*
X135113261Y-114635000D01*
X135448707Y-114568276D01*
X135829103Y-114314103D01*
X136083276Y-113933707D01*
X136169545Y-113500000D01*
X140094123Y-113500000D01*
X140094123Y-115100000D01*
X140117407Y-115217054D01*
X140183712Y-115316288D01*
X140282946Y-115382593D01*
X140400000Y-115405877D01*
X142000000Y-115405877D01*
X142117054Y-115382593D01*
X142216288Y-115316288D01*
X142282593Y-115217054D01*
X142305877Y-115100000D01*
X142305877Y-113500000D01*
X142282593Y-113382946D01*
X142216288Y-113283712D01*
X142117054Y-113217407D01*
X142000000Y-113194123D01*
X140400000Y-113194123D01*
X140282946Y-113217407D01*
X140183712Y-113283712D01*
X140117407Y-113382946D01*
X140094123Y-113500000D01*
X136169545Y-113500000D01*
X136172529Y-113485000D01*
X136083276Y-113036293D01*
X135829103Y-112655897D01*
X135448707Y-112401724D01*
X135113261Y-112335000D01*
X134886739Y-112335000D01*
X134551293Y-112401724D01*
X134170897Y-112655897D01*
X133916724Y-113036293D01*
X133827471Y-113485000D01*
X131375000Y-113485000D01*
X131375000Y-110945000D01*
X133827471Y-110945000D01*
X133916724Y-111393707D01*
X134170897Y-111774103D01*
X134551293Y-112028276D01*
X134886739Y-112095000D01*
X135113261Y-112095000D01*
X135448707Y-112028276D01*
X135829103Y-111774103D01*
X136083276Y-111393707D01*
X136172529Y-110945000D01*
X136083276Y-110496293D01*
X135829103Y-110115897D01*
X135448707Y-109861724D01*
X135113261Y-109795000D01*
X134886739Y-109795000D01*
X134551293Y-109861724D01*
X134170897Y-110115897D01*
X133916724Y-110496293D01*
X133827471Y-110945000D01*
X131375000Y-110945000D01*
X131375000Y-108405000D01*
X133827471Y-108405000D01*
X133916724Y-108853707D01*
X134170897Y-109234103D01*
X134551293Y-109488276D01*
X134886739Y-109555000D01*
X135113261Y-109555000D01*
X135448707Y-109488276D01*
X135829103Y-109234103D01*
X136083276Y-108853707D01*
X136172529Y-108405000D01*
X136083276Y-107956293D01*
X135829103Y-107575897D01*
X135448707Y-107321724D01*
X135113261Y-107255000D01*
X134886739Y-107255000D01*
X134551293Y-107321724D01*
X134170897Y-107575897D01*
X133916724Y-107956293D01*
X133827471Y-108405000D01*
X131375000Y-108405000D01*
X131375000Y-105865000D01*
X133827471Y-105865000D01*
X133916724Y-106313707D01*
X134170897Y-106694103D01*
X134551293Y-106948276D01*
X134886739Y-107015000D01*
X135113261Y-107015000D01*
X135431458Y-106951707D01*
X140123758Y-106951707D01*
X140309660Y-107342885D01*
X140631108Y-107633144D01*
X140928295Y-107756232D01*
X141100000Y-107707646D01*
X141100000Y-106780000D01*
X141300000Y-106780000D01*
X141300000Y-107707646D01*
X141471705Y-107756232D01*
X141768892Y-107633144D01*
X142090340Y-107342885D01*
X142276242Y-106951707D01*
X142227996Y-106780000D01*
X141300000Y-106780000D01*
X141100000Y-106780000D01*
X140172004Y-106780000D01*
X140123758Y-106951707D01*
X135431458Y-106951707D01*
X135448707Y-106948276D01*
X135829103Y-106694103D01*
X136020075Y-106408293D01*
X140123758Y-106408293D01*
X140172004Y-106580000D01*
X141100000Y-106580000D01*
X141100000Y-105652354D01*
X141300000Y-105652354D01*
X141300000Y-106580000D01*
X142227996Y-106580000D01*
X142276242Y-106408293D01*
X142090340Y-106017115D01*
X141768892Y-105726856D01*
X141471705Y-105603768D01*
X141300000Y-105652354D01*
X141100000Y-105652354D01*
X140928295Y-105603768D01*
X140631108Y-105726856D01*
X140309660Y-106017115D01*
X140123758Y-106408293D01*
X136020075Y-106408293D01*
X136083276Y-106313707D01*
X136172529Y-105865000D01*
X136083276Y-105416293D01*
X135829103Y-105035897D01*
X135448707Y-104781724D01*
X135113261Y-104715000D01*
X134886739Y-104715000D01*
X134551293Y-104781724D01*
X134170897Y-105035897D01*
X133916724Y-105416293D01*
X133827471Y-105865000D01*
X131375000Y-105865000D01*
X131375000Y-103604557D01*
X133874190Y-103604557D01*
X134006248Y-103923397D01*
X134310889Y-104258139D01*
X134720441Y-104450819D01*
X134900000Y-104403191D01*
X134900000Y-103425000D01*
X135100000Y-103425000D01*
X135100000Y-104403191D01*
X135279559Y-104450819D01*
X135689111Y-104258139D01*
X135993752Y-103923397D01*
X136125810Y-103604557D01*
X136077871Y-103425000D01*
X135100000Y-103425000D01*
X134900000Y-103425000D01*
X133922129Y-103425000D01*
X133874190Y-103604557D01*
X131375000Y-103604557D01*
X131375000Y-103045443D01*
X133874190Y-103045443D01*
X133922129Y-103225000D01*
X134900000Y-103225000D01*
X134900000Y-102246809D01*
X135100000Y-102246809D01*
X135100000Y-103225000D01*
X136077871Y-103225000D01*
X136125810Y-103045443D01*
X135993752Y-102726603D01*
X135689111Y-102391861D01*
X135279559Y-102199181D01*
X135100000Y-102246809D01*
X134900000Y-102246809D01*
X134720441Y-102199181D01*
X134310889Y-102391861D01*
X134006248Y-102726603D01*
X133874190Y-103045443D01*
X131375000Y-103045443D01*
X131375000Y-100875000D01*
X163625000Y-100875000D01*
X163625001Y-118625000D01*
G04 #@! TD*
M02*
