EESchema Schematic File Version 4
LIBS:poc_cca_hms-cache
LIBS:CC1101-cache
EELAYER 26 0
EELAYER END
$Descr A4 11693 8268
encoding utf-8
Sheet 5 5
Title ""
Date ""
Rev ""
Comp ""
Comment1 ""
Comment2 ""
Comment3 ""
Comment4 ""
$EndDescr
$Comp
L capstone_library:RFM95 U5
U 1 1 5BE1CB38
P 5900 2950
F 0 "U5" H 6375 3215 50  0000 C CNN
F 1 "RFM95" H 6375 3124 50  0000 C CNN
F 2 "capstone_footprints:RFM95" H 5900 2950 50  0001 C CNN
F 3 "" H 5900 2950 50  0001 C CNN
	1    5900 2950
	1    0    0    -1  
$EndComp
Text GLabel 6850 3250 2    50   Input ~ 0
P3V3
Text HLabel 3650 3250 0    50   Input ~ 0
SCLK_3V3
Text HLabel 3650 3050 0    50   Output ~ 0
MISO_3V3
Text HLabel 3650 3150 0    50   Input ~ 0
MOSI_3V3
Text HLabel 3650 3350 0    50   Input ~ 0
CS_3V3
$Comp
L Connector:Conn_Coaxial J8
U 1 1 5BE1CED1
P 7150 3850
F 0 "J8" H 7249 3826 50  0000 L CNN
F 1 "Conn_Coaxial" H 7249 3735 50  0000 L CNN
F 2 "Connector_Coaxial:SMA_Amphenol_132289_EdgeMount" H 7150 3850 50  0001 C CNN
F 3 " ~" H 7150 3850 50  0001 C CNN
	1    7150 3850
	1    0    0    -1  
$EndComp
Text GLabel 7150 4150 2    50   Input ~ 0
GND
Text HLabel 3650 3450 0    50   Input ~ 0
RST_3V3
$Comp
L power:GND #PWR?
U 1 1 5BE1F65C
P 5850 3700
F 0 "#PWR?" H 5850 3450 50  0001 C CNN
F 1 "GND" H 5855 3527 50  0000 C CNN
F 2 "" H 5850 3700 50  0001 C CNN
F 3 "" H 5850 3700 50  0001 C CNN
	1    5850 3700
	1    0    0    -1  
$EndComp
Wire Wire Line
	5850 3700 5850 3650
Wire Wire Line
	5850 3650 5900 3650
Text GLabel 6600 1750 0    50   Input ~ 0
P3V3
$Comp
L power:GND #PWR?
U 1 1 5BE4A692
P 6650 2250
F 0 "#PWR?" H 6650 2000 50  0001 C CNN
F 1 "GND" H 6655 2077 50  0000 C CNN
F 2 "" H 6650 2250 50  0001 C CNN
F 3 "" H 6650 2250 50  0001 C CNN
	1    6650 2250
	1    0    0    -1  
$EndComp
$Comp
L Device:C C29
U 1 1 5BE4A72C
P 6650 2000
F 0 "C29" H 6765 2046 50  0000 L CNN
F 1 "10u" H 6765 1955 50  0000 L CNN
F 2 "Capacitor_SMD:C_0603_1608Metric_Pad1.05x0.95mm_HandSolder" H 6688 1850 50  0001 C CNN
F 3 "~" H 6650 2000 50  0001 C CNN
	1    6650 2000
	1    0    0    -1  
$EndComp
Wire Wire Line
	6600 1750 6650 1750
Wire Wire Line
	6650 1750 6650 1850
Wire Wire Line
	6650 2150 6650 2250
$Comp
L power:GND #PWR?
U 1 1 5BE4C358
P 6950 3550
F 0 "#PWR?" H 6950 3300 50  0001 C CNN
F 1 "GND" V 6955 3377 50  0000 C CNN
F 2 "" H 6950 3550 50  0001 C CNN
F 3 "" H 6950 3550 50  0001 C CNN
	1    6950 3550
	0    -1   -1   0   
$EndComp
Wire Wire Line
	6950 3550 6850 3550
$Comp
L power:GND #PWR?
U 1 1 5BE4C8C5
P 5800 2950
F 0 "#PWR?" H 5800 2700 50  0001 C CNN
F 1 "GND" V 5805 2777 50  0000 C CNN
F 2 "" H 5800 2950 50  0001 C CNN
F 3 "" H 5800 2950 50  0001 C CNN
	1    5800 2950
	0    1    1    0   
$EndComp
Wire Wire Line
	5900 2950 5800 2950
Text HLabel 3650 2950 0    50   BiDi ~ 0
DIO0_3V3
Text HLabel 3650 2850 0    50   BiDi ~ 0
DIO1_3V3
Text HLabel 3650 2750 0    50   BiDi ~ 0
DIO2_3V3
Text HLabel 3650 3650 0    50   BiDi ~ 0
DIO3_3V3
Text HLabel 3650 3750 0    50   BiDi ~ 0
DIO4_3V3
Text HLabel 3650 3550 0    50   BiDi ~ 0
DIO5_3V3
Wire Wire Line
	6850 3650 6900 3650
Wire Wire Line
	6900 3650 6900 3850
Wire Wire Line
	6900 3850 6950 3850
Wire Wire Line
	7150 4050 7150 4150
Wire Wire Line
	6850 3450 7850 3450
Wire Wire Line
	7850 3450 7850 4250
Wire Wire Line
	7850 4250 5400 4250
Wire Wire Line
	5400 4250 5400 3650
Wire Wire Line
	6850 3350 7900 3350
Wire Wire Line
	7900 3350 7900 4300
Wire Wire Line
	7900 4300 5350 4300
Wire Wire Line
	5350 4300 5350 3750
Wire Wire Line
	5450 2600 5450 2950
Wire Wire Line
	6850 2950 6950 2950
Wire Wire Line
	6950 2950 6950 2600
Wire Wire Line
	6950 2600 5450 2600
Wire Wire Line
	6850 3050 7000 3050
Wire Wire Line
	7000 3050 7000 2550
Wire Wire Line
	7000 2550 5400 2550
Wire Wire Line
	5400 2550 5400 2850
Wire Wire Line
	6850 3150 7050 3150
Wire Wire Line
	7050 3150 7050 2500
Wire Wire Line
	7050 2500 5350 2500
Wire Wire Line
	5350 2500 5350 2750
$Comp
L Connector_Generic:Conn_02x07_Odd_Even J7
U 1 1 5BE5DAF4
P 4450 2000
F 0 "J7" H 4500 2517 50  0000 C CNN
F 1 "Conn_02x07_Counter_Clockwise" H 4500 2426 50  0000 C CNN
F 2 "Connector_PinHeader_2.54mm:PinHeader_2x07_P2.54mm_Vertical" H 4450 2000 50  0001 C CNN
F 3 "~" H 4450 2000 50  0001 C CNN
	1    4450 2000
	1    0    0    -1  
$EndComp
$Comp
L power:GND #PWR?
U 1 1 5BE5F024
P 4250 2400
F 0 "#PWR?" H 4250 2150 50  0001 C CNN
F 1 "GND" H 4400 2350 50  0000 C CNN
F 2 "" H 4250 2400 50  0001 C CNN
F 3 "" H 4250 2400 50  0001 C CNN
	1    4250 2400
	1    0    0    -1  
$EndComp
Wire Wire Line
	4250 2300 4250 2400
Wire Wire Line
	4150 1700 4250 1700
Wire Wire Line
	3650 2750 4900 2750
Wire Wire Line
	3650 2850 4950 2850
Wire Wire Line
	3650 2950 5000 2950
Wire Wire Line
	3650 3550 4750 3550
Wire Wire Line
	3650 3650 4800 3650
Wire Wire Line
	3650 3750 4850 3750
Wire Wire Line
	3650 3350 4000 3350
Wire Wire Line
	3650 3450 3950 3450
Wire Wire Line
	3650 3250 4050 3250
Wire Wire Line
	3650 3150 4100 3150
Wire Wire Line
	4250 2200 4150 2200
Wire Wire Line
	4150 2200 4150 3050
Wire Wire Line
	3650 3050 4150 3050
Connection ~ 4150 3050
Wire Wire Line
	4150 3050 5900 3050
Wire Wire Line
	4250 2100 4100 2100
Wire Wire Line
	4100 2100 4100 3150
Connection ~ 4100 3150
Wire Wire Line
	4100 3150 5900 3150
Wire Wire Line
	4250 2000 4050 2000
Wire Wire Line
	4050 2000 4050 3250
Connection ~ 4050 3250
Wire Wire Line
	4050 3250 5900 3250
Wire Wire Line
	4250 1900 4000 1900
Wire Wire Line
	4000 1900 4000 3350
Connection ~ 4000 3350
Wire Wire Line
	4000 3350 5900 3350
Wire Wire Line
	4250 1800 3950 1800
Wire Wire Line
	3950 1800 3950 3450
Connection ~ 3950 3450
Wire Wire Line
	3950 3450 5900 3450
Wire Wire Line
	4750 2300 4750 3550
Connection ~ 4750 3550
Wire Wire Line
	4750 3550 5900 3550
Wire Wire Line
	4750 2200 4800 2200
Wire Wire Line
	4800 2200 4800 3650
Connection ~ 4800 3650
Wire Wire Line
	4800 3650 5400 3650
Wire Wire Line
	4750 2100 4850 2100
Wire Wire Line
	4850 2100 4850 3750
Connection ~ 4850 3750
Wire Wire Line
	4850 3750 5350 3750
Wire Wire Line
	4750 2000 4900 2000
Wire Wire Line
	4900 2000 4900 2750
Connection ~ 4900 2750
Wire Wire Line
	4900 2750 5350 2750
Wire Wire Line
	4750 1900 4950 1900
Wire Wire Line
	4950 1900 4950 2850
Connection ~ 4950 2850
Wire Wire Line
	4950 2850 5400 2850
Wire Wire Line
	4750 1800 5000 1800
Wire Wire Line
	5000 1800 5000 2950
Connection ~ 5000 2950
Wire Wire Line
	5000 2950 5450 2950
Text GLabel 4850 1700 2    50   Input ~ 0
P3V3
Wire Wire Line
	4850 1700 4750 1700
$Comp
L power:GND #PWR?
U 1 1 5BE93858
P 4150 1700
F 0 "#PWR?" H 4150 1450 50  0001 C CNN
F 1 "GND" V 4150 1500 50  0000 C CNN
F 2 "" H 4150 1700 50  0001 C CNN
F 3 "" H 4150 1700 50  0001 C CNN
	1    4150 1700
	0    1    1    0   
$EndComp
$EndSCHEMATC
