M48
;DRILL file {KiCad 5.0.1-33cea8e~68~ubuntu18.04.1} date Mon 12 Nov 2018 12:40:29 PM EST
;FORMAT={-:-/ absolute / metric / decimal}
FMAT,2
METRIC,TZ
T1C0.850
T2C1.000
%
G90
G05
M71
T1
X141.2Y-106.68
X141.2Y-114.3
T2
X135.Y-103.325
X135.Y-105.865
X135.Y-108.405
X135.Y-110.945
X135.Y-113.485
X135.Y-116.025
T0
M30
