G04 #@! TF.GenerationSoftware,KiCad,Pcbnew,5.0.1-33cea8e~68~ubuntu18.04.1*
G04 #@! TF.CreationDate,2018-11-12T14:03:51-05:00*
G04 #@! TF.ProjectId,RFM95,52464D39352E6B696361645F70636200,rev?*
G04 #@! TF.SameCoordinates,Original*
G04 #@! TF.FileFunction,Copper,L1,Top,Signal*
G04 #@! TF.FilePolarity,Positive*
%FSLAX46Y46*%
G04 Gerber Fmt 4.6, Leading zero omitted, Abs format (unit mm)*
G04 Created by KiCad (PCBNEW 5.0.1-33cea8e~68~ubuntu18.04.1) date Mon 12 Nov 2018 02:03:51 PM EST*
%MOMM*%
%LPD*%
G01*
G04 APERTURE LIST*
G04 #@! TA.AperFunction,SMDPad,CuDef*
%ADD10R,1.000000X5.000000*%
G04 #@! TD*
G04 #@! TA.AperFunction,SMDPad,CuDef*
%ADD11R,5.080000X1.500000*%
G04 #@! TD*
G04 #@! TA.AperFunction,Conductor*
%ADD12C,0.100000*%
G04 #@! TD*
G04 #@! TA.AperFunction,SMDPad,CuDef*
%ADD13C,0.950000*%
G04 #@! TD*
G04 #@! TA.AperFunction,ComponentPad*
%ADD14R,1.700000X1.700000*%
G04 #@! TD*
G04 #@! TA.AperFunction,ComponentPad*
%ADD15O,1.700000X1.700000*%
G04 #@! TD*
G04 #@! TA.AperFunction,Conductor*
%ADD16C,0.300000*%
G04 #@! TD*
G04 #@! TA.AperFunction,Conductor*
%ADD17C,0.254000*%
G04 #@! TD*
G04 APERTURE END LIST*
D10*
G04 #@! TO.P,U1,16*
G04 #@! TO.N,/DIO0_3V3*
X147050000Y-73650000D03*
G04 #@! TO.P,U1,15*
G04 #@! TO.N,/DIO1_3V3*
X149050000Y-73650000D03*
G04 #@! TO.P,U1,14*
G04 #@! TO.N,/DIO2_3V3*
X151050000Y-73650000D03*
G04 #@! TO.P,U1,13*
G04 #@! TO.N,P3V3*
X153050000Y-73650000D03*
G04 #@! TO.P,U1,12*
G04 #@! TO.N,/DIO4_3V3*
X155050000Y-73650000D03*
G04 #@! TO.P,U1,11*
G04 #@! TO.N,/DIO3_3V3*
X157050000Y-73650000D03*
G04 #@! TO.P,U1,10*
G04 #@! TO.N,GND*
X159050000Y-73650000D03*
G04 #@! TO.P,U1,9*
G04 #@! TO.N,Net-(J1-Pad1)*
X161050000Y-73650000D03*
G04 #@! TO.P,U1,8*
G04 #@! TO.N,GND*
X161050000Y-88150000D03*
G04 #@! TO.P,U1,7*
G04 #@! TO.N,/DIO5_3V3*
X159050000Y-88150000D03*
G04 #@! TO.P,U1,6*
G04 #@! TO.N,/RST_3V3*
X157050000Y-88150000D03*
G04 #@! TO.P,U1,5*
G04 #@! TO.N,/CS_3V3*
X155050000Y-88150000D03*
G04 #@! TO.P,U1,4*
G04 #@! TO.N,/SCLK_3V3*
X153050000Y-88150000D03*
G04 #@! TO.P,U1,3*
G04 #@! TO.N,/MOSI_3V3*
X151050000Y-88150000D03*
G04 #@! TO.P,U1,2*
G04 #@! TO.N,/MISO_3V3*
X149050000Y-88150000D03*
G04 #@! TO.P,U1,1*
G04 #@! TO.N,GND*
X147050000Y-88150000D03*
G04 #@! TD*
D11*
G04 #@! TO.P,J1,2*
G04 #@! TO.N,GND*
X167640000Y-78545000D03*
X167640000Y-70045000D03*
G04 #@! TO.P,J1,1*
G04 #@! TO.N,Net-(J1-Pad1)*
X167640000Y-74295000D03*
G04 #@! TD*
D12*
G04 #@! TO.N,P3V3*
G04 #@! TO.C,C1*
G36*
X153335779Y-69026144D02*
X153358834Y-69029563D01*
X153381443Y-69035227D01*
X153403387Y-69043079D01*
X153424457Y-69053044D01*
X153444448Y-69065026D01*
X153463168Y-69078910D01*
X153480438Y-69094562D01*
X153496090Y-69111832D01*
X153509974Y-69130552D01*
X153521956Y-69150543D01*
X153531921Y-69171613D01*
X153539773Y-69193557D01*
X153545437Y-69216166D01*
X153548856Y-69239221D01*
X153550000Y-69262500D01*
X153550000Y-69737500D01*
X153548856Y-69760779D01*
X153545437Y-69783834D01*
X153539773Y-69806443D01*
X153531921Y-69828387D01*
X153521956Y-69849457D01*
X153509974Y-69869448D01*
X153496090Y-69888168D01*
X153480438Y-69905438D01*
X153463168Y-69921090D01*
X153444448Y-69934974D01*
X153424457Y-69946956D01*
X153403387Y-69956921D01*
X153381443Y-69964773D01*
X153358834Y-69970437D01*
X153335779Y-69973856D01*
X153312500Y-69975000D01*
X152737500Y-69975000D01*
X152714221Y-69973856D01*
X152691166Y-69970437D01*
X152668557Y-69964773D01*
X152646613Y-69956921D01*
X152625543Y-69946956D01*
X152605552Y-69934974D01*
X152586832Y-69921090D01*
X152569562Y-69905438D01*
X152553910Y-69888168D01*
X152540026Y-69869448D01*
X152528044Y-69849457D01*
X152518079Y-69828387D01*
X152510227Y-69806443D01*
X152504563Y-69783834D01*
X152501144Y-69760779D01*
X152500000Y-69737500D01*
X152500000Y-69262500D01*
X152501144Y-69239221D01*
X152504563Y-69216166D01*
X152510227Y-69193557D01*
X152518079Y-69171613D01*
X152528044Y-69150543D01*
X152540026Y-69130552D01*
X152553910Y-69111832D01*
X152569562Y-69094562D01*
X152586832Y-69078910D01*
X152605552Y-69065026D01*
X152625543Y-69053044D01*
X152646613Y-69043079D01*
X152668557Y-69035227D01*
X152691166Y-69029563D01*
X152714221Y-69026144D01*
X152737500Y-69025000D01*
X153312500Y-69025000D01*
X153335779Y-69026144D01*
X153335779Y-69026144D01*
G37*
D13*
G04 #@! TD*
G04 #@! TO.P,C1,1*
G04 #@! TO.N,P3V3*
X153025000Y-69500000D03*
D12*
G04 #@! TO.N,GND*
G04 #@! TO.C,C1*
G36*
X155085779Y-69026144D02*
X155108834Y-69029563D01*
X155131443Y-69035227D01*
X155153387Y-69043079D01*
X155174457Y-69053044D01*
X155194448Y-69065026D01*
X155213168Y-69078910D01*
X155230438Y-69094562D01*
X155246090Y-69111832D01*
X155259974Y-69130552D01*
X155271956Y-69150543D01*
X155281921Y-69171613D01*
X155289773Y-69193557D01*
X155295437Y-69216166D01*
X155298856Y-69239221D01*
X155300000Y-69262500D01*
X155300000Y-69737500D01*
X155298856Y-69760779D01*
X155295437Y-69783834D01*
X155289773Y-69806443D01*
X155281921Y-69828387D01*
X155271956Y-69849457D01*
X155259974Y-69869448D01*
X155246090Y-69888168D01*
X155230438Y-69905438D01*
X155213168Y-69921090D01*
X155194448Y-69934974D01*
X155174457Y-69946956D01*
X155153387Y-69956921D01*
X155131443Y-69964773D01*
X155108834Y-69970437D01*
X155085779Y-69973856D01*
X155062500Y-69975000D01*
X154487500Y-69975000D01*
X154464221Y-69973856D01*
X154441166Y-69970437D01*
X154418557Y-69964773D01*
X154396613Y-69956921D01*
X154375543Y-69946956D01*
X154355552Y-69934974D01*
X154336832Y-69921090D01*
X154319562Y-69905438D01*
X154303910Y-69888168D01*
X154290026Y-69869448D01*
X154278044Y-69849457D01*
X154268079Y-69828387D01*
X154260227Y-69806443D01*
X154254563Y-69783834D01*
X154251144Y-69760779D01*
X154250000Y-69737500D01*
X154250000Y-69262500D01*
X154251144Y-69239221D01*
X154254563Y-69216166D01*
X154260227Y-69193557D01*
X154268079Y-69171613D01*
X154278044Y-69150543D01*
X154290026Y-69130552D01*
X154303910Y-69111832D01*
X154319562Y-69094562D01*
X154336832Y-69078910D01*
X154355552Y-69065026D01*
X154375543Y-69053044D01*
X154396613Y-69043079D01*
X154418557Y-69035227D01*
X154441166Y-69029563D01*
X154464221Y-69026144D01*
X154487500Y-69025000D01*
X155062500Y-69025000D01*
X155085779Y-69026144D01*
X155085779Y-69026144D01*
G37*
D13*
G04 #@! TD*
G04 #@! TO.P,C1,2*
G04 #@! TO.N,GND*
X154775000Y-69500000D03*
D14*
G04 #@! TO.P,J2,1*
G04 #@! TO.N,GND*
X138460000Y-72390000D03*
D15*
G04 #@! TO.P,J2,2*
G04 #@! TO.N,P3V3*
X141000000Y-72390000D03*
G04 #@! TO.P,J2,3*
G04 #@! TO.N,/RST_3V3*
X138460000Y-74930000D03*
G04 #@! TO.P,J2,4*
G04 #@! TO.N,/DIO0_3V3*
X141000000Y-74930000D03*
G04 #@! TO.P,J2,5*
G04 #@! TO.N,/CS_3V3*
X138460000Y-77470000D03*
G04 #@! TO.P,J2,6*
G04 #@! TO.N,/DIO1_3V3*
X141000000Y-77470000D03*
G04 #@! TO.P,J2,7*
G04 #@! TO.N,/SCLK_3V3*
X138460000Y-80010000D03*
G04 #@! TO.P,J2,8*
G04 #@! TO.N,/DIO2_3V3*
X141000000Y-80010000D03*
G04 #@! TO.P,J2,9*
G04 #@! TO.N,/MOSI_3V3*
X138460000Y-82550000D03*
G04 #@! TO.P,J2,10*
G04 #@! TO.N,/DIO4_3V3*
X141000000Y-82550000D03*
G04 #@! TO.P,J2,11*
G04 #@! TO.N,/MISO_3V3*
X138460000Y-85090000D03*
G04 #@! TO.P,J2,12*
G04 #@! TO.N,/DIO3_3V3*
X141000000Y-85090000D03*
G04 #@! TO.P,J2,13*
G04 #@! TO.N,GND*
X138460000Y-87630000D03*
G04 #@! TO.P,J2,14*
G04 #@! TO.N,/DIO5_3V3*
X141000000Y-87630000D03*
G04 #@! TD*
D16*
G04 #@! TO.N,GND*
X139730000Y-88900000D02*
X138460000Y-87630000D01*
X147050000Y-88900000D02*
X139730000Y-88900000D01*
X147050000Y-88900000D02*
X147900000Y-88900000D01*
G04 #@! TO.N,Net-(J1-Pad1)*
X161050000Y-72900000D02*
X162400000Y-72900000D01*
X163795000Y-74295000D02*
X167640000Y-74295000D01*
X162400000Y-72900000D02*
X163795000Y-74295000D01*
G04 #@! TO.N,P3V3*
X152400000Y-69500000D02*
X153025000Y-69500000D01*
X145092081Y-69500000D02*
X152400000Y-69500000D01*
X142202081Y-72390000D02*
X145092081Y-69500000D01*
X141000000Y-72390000D02*
X142202081Y-72390000D01*
X153025000Y-72875000D02*
X153050000Y-72900000D01*
X153025000Y-69500000D02*
X153025000Y-72875000D01*
G04 #@! TO.N,/MISO_3V3*
X137610001Y-85939999D02*
X138460000Y-85090000D01*
X149050000Y-90150000D02*
X148145999Y-91054001D01*
X149050000Y-88900000D02*
X149050000Y-90150000D01*
X140028079Y-91054001D02*
X137205999Y-88231921D01*
X137205999Y-88231921D02*
X137205999Y-86344001D01*
X148145999Y-91054001D02*
X140028079Y-91054001D01*
X137205999Y-86344001D02*
X137610001Y-85939999D01*
G04 #@! TO.N,/MOSI_3V3*
X151050000Y-90150000D02*
X149591990Y-91608010D01*
X137610001Y-83399999D02*
X138460000Y-82550000D01*
X151050000Y-88900000D02*
X151050000Y-90150000D01*
X149591990Y-91608010D02*
X139798600Y-91608010D01*
X139798600Y-91608010D02*
X136651989Y-88461399D01*
X136651989Y-88461399D02*
X136651989Y-84358011D01*
X136651989Y-84358011D02*
X137610001Y-83399999D01*
G04 #@! TO.N,/SCLK_3V3*
X137610001Y-80859999D02*
X138460000Y-80010000D01*
X153050000Y-90150000D02*
X151037981Y-92162019D01*
X153050000Y-88900000D02*
X153050000Y-90150000D01*
X151037981Y-92162019D02*
X139569121Y-92162019D01*
X139569121Y-92162019D02*
X136097979Y-88690877D01*
X136097979Y-88690877D02*
X136097979Y-82372021D01*
X136097979Y-82372021D02*
X137610001Y-80859999D01*
G04 #@! TO.N,/CS_3V3*
X137610001Y-78319999D02*
X138460000Y-77470000D01*
X155050000Y-90050000D02*
X152383971Y-92716029D01*
X155050000Y-88900000D02*
X155050000Y-90050000D01*
X139216029Y-92716029D02*
X135543969Y-89043969D01*
X152383971Y-92716029D02*
X139216029Y-92716029D01*
X135543969Y-89043969D02*
X135543969Y-80386031D01*
X135543969Y-80386031D02*
X137610001Y-78319999D01*
G04 #@! TO.N,/RST_3V3*
X137610001Y-75779999D02*
X138460000Y-74930000D01*
X157050000Y-90150000D02*
X153929962Y-93270038D01*
X157050000Y-88900000D02*
X157050000Y-90150000D01*
X153929962Y-93270038D02*
X138986550Y-93270038D01*
X138986550Y-93270038D02*
X134989959Y-89273447D01*
X134989959Y-89273447D02*
X134989959Y-78400041D01*
X134989959Y-78400041D02*
X137610001Y-75779999D01*
G04 #@! TO.N,/DIO5_3V3*
X141849999Y-86780001D02*
X141000000Y-87630000D01*
X143930000Y-84700000D02*
X141849999Y-86780001D01*
X158400000Y-84700000D02*
X143930000Y-84700000D01*
X159050000Y-88900000D02*
X159050000Y-85350000D01*
X159050000Y-85350000D02*
X158400000Y-84700000D01*
G04 #@! TO.N,/DIO3_3V3*
X142190000Y-83900000D02*
X141000000Y-85090000D01*
X150100000Y-83900000D02*
X142190000Y-83900000D01*
X157050000Y-72900000D02*
X157050000Y-76950000D01*
X157050000Y-76950000D02*
X150100000Y-83900000D01*
G04 #@! TO.N,/DIO4_3V3*
X142202081Y-82550000D02*
X141000000Y-82550000D01*
X155050000Y-72900000D02*
X155050000Y-76950000D01*
X149450000Y-82550000D02*
X142202081Y-82550000D01*
X155050000Y-76950000D02*
X149450000Y-82550000D01*
G04 #@! TO.N,/DIO0_3V3*
X143030000Y-72900000D02*
X141000000Y-74930000D01*
X147050000Y-72900000D02*
X143030000Y-72900000D01*
G04 #@! TO.N,/DIO1_3V3*
X148530000Y-77470000D02*
X142202081Y-77470000D01*
X149050000Y-72900000D02*
X149050000Y-76950000D01*
X142202081Y-77470000D02*
X141000000Y-77470000D01*
X149050000Y-76950000D02*
X148530000Y-77470000D01*
G04 #@! TO.N,/DIO2_3V3*
X142202081Y-80010000D02*
X141000000Y-80010000D01*
X147990000Y-80010000D02*
X142202081Y-80010000D01*
X151050000Y-72900000D02*
X151050000Y-76950000D01*
X151050000Y-76950000D02*
X147990000Y-80010000D01*
G04 #@! TD*
D17*
G04 #@! TO.N,GND*
G36*
X170384000Y-68973083D02*
X170360471Y-68957362D01*
X170291134Y-68928642D01*
X170217525Y-68914000D01*
X167862250Y-68914000D01*
X167767000Y-69009250D01*
X167767000Y-69918000D01*
X167787000Y-69918000D01*
X167787000Y-70172000D01*
X167767000Y-70172000D01*
X167767000Y-71080750D01*
X167862250Y-71176000D01*
X170217525Y-71176000D01*
X170291134Y-71161358D01*
X170360471Y-71132638D01*
X170384000Y-71116916D01*
X170384000Y-73222030D01*
X170326508Y-73191299D01*
X170254689Y-73169513D01*
X170180000Y-73162157D01*
X165100000Y-73162157D01*
X165025311Y-73169513D01*
X164953492Y-73191299D01*
X164887304Y-73226678D01*
X164829289Y-73274289D01*
X164781678Y-73332304D01*
X164746299Y-73398492D01*
X164724513Y-73470311D01*
X164717157Y-73545000D01*
X164717157Y-73764000D01*
X164014947Y-73764000D01*
X162793921Y-72542975D01*
X162777290Y-72522710D01*
X162696435Y-72456354D01*
X162604188Y-72407047D01*
X162504094Y-72376683D01*
X162426084Y-72369000D01*
X162426074Y-72369000D01*
X162400000Y-72366432D01*
X162373926Y-72369000D01*
X161932843Y-72369000D01*
X161932843Y-71150000D01*
X161925487Y-71075311D01*
X161903701Y-71003492D01*
X161868322Y-70937304D01*
X161820711Y-70879289D01*
X161762696Y-70831678D01*
X161696508Y-70796299D01*
X161624689Y-70774513D01*
X161550000Y-70767157D01*
X160550000Y-70767157D01*
X160475311Y-70774513D01*
X160403492Y-70796299D01*
X160337304Y-70831678D01*
X160279289Y-70879289D01*
X160231678Y-70937304D01*
X160196299Y-71003492D01*
X160174513Y-71075311D01*
X160167157Y-71150000D01*
X160167157Y-76150000D01*
X160174513Y-76224689D01*
X160196299Y-76296508D01*
X160231678Y-76362696D01*
X160279289Y-76420711D01*
X160337304Y-76468322D01*
X160403492Y-76503701D01*
X160475311Y-76525487D01*
X160550000Y-76532843D01*
X161550000Y-76532843D01*
X161624689Y-76525487D01*
X161696508Y-76503701D01*
X161762696Y-76468322D01*
X161820711Y-76420711D01*
X161868322Y-76362696D01*
X161903701Y-76296508D01*
X161925487Y-76224689D01*
X161932843Y-76150000D01*
X161932843Y-73431000D01*
X162180054Y-73431000D01*
X163401083Y-74652030D01*
X163417710Y-74672290D01*
X163437970Y-74688917D01*
X163498564Y-74738646D01*
X163590812Y-74787953D01*
X163690906Y-74818317D01*
X163768916Y-74826000D01*
X163768926Y-74826000D01*
X163795000Y-74828568D01*
X163821074Y-74826000D01*
X164717157Y-74826000D01*
X164717157Y-75045000D01*
X164724513Y-75119689D01*
X164746299Y-75191508D01*
X164781678Y-75257696D01*
X164829289Y-75315711D01*
X164887304Y-75363322D01*
X164953492Y-75398701D01*
X165025311Y-75420487D01*
X165100000Y-75427843D01*
X170180000Y-75427843D01*
X170254689Y-75420487D01*
X170326508Y-75398701D01*
X170384000Y-75367970D01*
X170384000Y-77473084D01*
X170360471Y-77457362D01*
X170291134Y-77428642D01*
X170217525Y-77414000D01*
X167862250Y-77414000D01*
X167767000Y-77509250D01*
X167767000Y-78418000D01*
X167787000Y-78418000D01*
X167787000Y-78672000D01*
X167767000Y-78672000D01*
X167767000Y-79580750D01*
X167862250Y-79676000D01*
X170217525Y-79676000D01*
X170291134Y-79661358D01*
X170360471Y-79632638D01*
X170384000Y-79616916D01*
X170384001Y-93549000D01*
X154401946Y-93549000D01*
X156918104Y-91032843D01*
X157550000Y-91032843D01*
X157624689Y-91025487D01*
X157696508Y-91003701D01*
X157762696Y-90968322D01*
X157820711Y-90920711D01*
X157868322Y-90862696D01*
X157903701Y-90796508D01*
X157925487Y-90724689D01*
X157932843Y-90650000D01*
X157932843Y-85650000D01*
X157925487Y-85575311D01*
X157903701Y-85503492D01*
X157868322Y-85437304D01*
X157820711Y-85379289D01*
X157762696Y-85331678D01*
X157696508Y-85296299D01*
X157624689Y-85274513D01*
X157550000Y-85267157D01*
X156550000Y-85267157D01*
X156475311Y-85274513D01*
X156403492Y-85296299D01*
X156337304Y-85331678D01*
X156279289Y-85379289D01*
X156231678Y-85437304D01*
X156196299Y-85503492D01*
X156174513Y-85575311D01*
X156167157Y-85650000D01*
X156167157Y-90281896D01*
X155932843Y-90516210D01*
X155932843Y-85650000D01*
X155925487Y-85575311D01*
X155903701Y-85503492D01*
X155868322Y-85437304D01*
X155820711Y-85379289D01*
X155762696Y-85331678D01*
X155696508Y-85296299D01*
X155624689Y-85274513D01*
X155550000Y-85267157D01*
X154550000Y-85267157D01*
X154475311Y-85274513D01*
X154403492Y-85296299D01*
X154337304Y-85331678D01*
X154279289Y-85379289D01*
X154231678Y-85437304D01*
X154196299Y-85503492D01*
X154174513Y-85575311D01*
X154167157Y-85650000D01*
X154167157Y-90181896D01*
X153932843Y-90416210D01*
X153932843Y-85650000D01*
X153925487Y-85575311D01*
X153903701Y-85503492D01*
X153868322Y-85437304D01*
X153820711Y-85379289D01*
X153762696Y-85331678D01*
X153696508Y-85296299D01*
X153624689Y-85274513D01*
X153550000Y-85267157D01*
X152550000Y-85267157D01*
X152475311Y-85274513D01*
X152403492Y-85296299D01*
X152337304Y-85331678D01*
X152279289Y-85379289D01*
X152231678Y-85437304D01*
X152196299Y-85503492D01*
X152174513Y-85575311D01*
X152167157Y-85650000D01*
X152167157Y-90281896D01*
X151932843Y-90516210D01*
X151932843Y-85650000D01*
X151925487Y-85575311D01*
X151903701Y-85503492D01*
X151868322Y-85437304D01*
X151820711Y-85379289D01*
X151762696Y-85331678D01*
X151696508Y-85296299D01*
X151624689Y-85274513D01*
X151550000Y-85267157D01*
X150550000Y-85267157D01*
X150475311Y-85274513D01*
X150403492Y-85296299D01*
X150337304Y-85331678D01*
X150279289Y-85379289D01*
X150231678Y-85437304D01*
X150196299Y-85503492D01*
X150174513Y-85575311D01*
X150167157Y-85650000D01*
X150167157Y-90281896D01*
X149932843Y-90516210D01*
X149932843Y-85650000D01*
X149925487Y-85575311D01*
X149903701Y-85503492D01*
X149868322Y-85437304D01*
X149820711Y-85379289D01*
X149762696Y-85331678D01*
X149696508Y-85296299D01*
X149624689Y-85274513D01*
X149550000Y-85267157D01*
X148550000Y-85267157D01*
X148475311Y-85274513D01*
X148403492Y-85296299D01*
X148337304Y-85331678D01*
X148279289Y-85379289D01*
X148231678Y-85437304D01*
X148196299Y-85503492D01*
X148174513Y-85575311D01*
X148167157Y-85650000D01*
X148167157Y-90281897D01*
X147932843Y-90516211D01*
X147932843Y-85650000D01*
X147925487Y-85575311D01*
X147903701Y-85503492D01*
X147868322Y-85437304D01*
X147820711Y-85379289D01*
X147762696Y-85331678D01*
X147696508Y-85296299D01*
X147624689Y-85274513D01*
X147550000Y-85267157D01*
X146550000Y-85267157D01*
X146475311Y-85274513D01*
X146403492Y-85296299D01*
X146337304Y-85331678D01*
X146279289Y-85379289D01*
X146231678Y-85437304D01*
X146196299Y-85503492D01*
X146174513Y-85575311D01*
X146167157Y-85650000D01*
X146167157Y-90523001D01*
X140248027Y-90523001D01*
X138586025Y-88861000D01*
X138587002Y-88861000D01*
X138587002Y-88759188D01*
X138776981Y-88819495D01*
X139002949Y-88734799D01*
X139208052Y-88607647D01*
X139384408Y-88442924D01*
X139525239Y-88246961D01*
X139625134Y-88027288D01*
X139649489Y-87946980D01*
X139588627Y-87757000D01*
X138587000Y-87757000D01*
X138587000Y-87777000D01*
X138333000Y-87777000D01*
X138333000Y-87757000D01*
X138313000Y-87757000D01*
X138313000Y-87503000D01*
X138333000Y-87503000D01*
X138333000Y-86500813D01*
X138587000Y-86500813D01*
X138587000Y-87503000D01*
X139588627Y-87503000D01*
X139649489Y-87313020D01*
X139625134Y-87232712D01*
X139525239Y-87013039D01*
X139384408Y-86817076D01*
X139208052Y-86652353D01*
X139002949Y-86525201D01*
X138776981Y-86440505D01*
X138587000Y-86500813D01*
X138333000Y-86500813D01*
X138143019Y-86440505D01*
X137917051Y-86525201D01*
X137736999Y-86636823D01*
X137736999Y-86563947D01*
X138003918Y-86297029D01*
X138003922Y-86297024D01*
X138049177Y-86251769D01*
X138218682Y-86303188D01*
X138399528Y-86321000D01*
X138520472Y-86321000D01*
X138701318Y-86303188D01*
X138933363Y-86232798D01*
X139147216Y-86118491D01*
X139334660Y-85964660D01*
X139488491Y-85777216D01*
X139602798Y-85563363D01*
X139673188Y-85331318D01*
X139696956Y-85090000D01*
X139763044Y-85090000D01*
X139786812Y-85331318D01*
X139857202Y-85563363D01*
X139971509Y-85777216D01*
X140125340Y-85964660D01*
X140312784Y-86118491D01*
X140526637Y-86232798D01*
X140758682Y-86303188D01*
X140939528Y-86321000D01*
X141060472Y-86321000D01*
X141241318Y-86303188D01*
X141473363Y-86232798D01*
X141687216Y-86118491D01*
X141874660Y-85964660D01*
X142028491Y-85777216D01*
X142142798Y-85563363D01*
X142213188Y-85331318D01*
X142236956Y-85090000D01*
X142213188Y-84848682D01*
X142161769Y-84679177D01*
X142409947Y-84431000D01*
X143448052Y-84431000D01*
X141492974Y-86386080D01*
X141492969Y-86386084D01*
X141410823Y-86468231D01*
X141241318Y-86416812D01*
X141060472Y-86399000D01*
X140939528Y-86399000D01*
X140758682Y-86416812D01*
X140526637Y-86487202D01*
X140312784Y-86601509D01*
X140125340Y-86755340D01*
X139971509Y-86942784D01*
X139857202Y-87156637D01*
X139786812Y-87388682D01*
X139763044Y-87630000D01*
X139786812Y-87871318D01*
X139857202Y-88103363D01*
X139971509Y-88317216D01*
X140125340Y-88504660D01*
X140312784Y-88658491D01*
X140526637Y-88772798D01*
X140758682Y-88843188D01*
X140939528Y-88861000D01*
X141060472Y-88861000D01*
X141241318Y-88843188D01*
X141473363Y-88772798D01*
X141687216Y-88658491D01*
X141874660Y-88504660D01*
X142028491Y-88317216D01*
X142142798Y-88103363D01*
X142213188Y-87871318D01*
X142236956Y-87630000D01*
X142213188Y-87388682D01*
X142161769Y-87219177D01*
X142243916Y-87137031D01*
X142243920Y-87137026D01*
X144149948Y-85231000D01*
X158180053Y-85231000D01*
X158306231Y-85357178D01*
X158279289Y-85379289D01*
X158231678Y-85437304D01*
X158196299Y-85503492D01*
X158174513Y-85575311D01*
X158167157Y-85650000D01*
X158167157Y-90650000D01*
X158174513Y-90724689D01*
X158196299Y-90796508D01*
X158231678Y-90862696D01*
X158279289Y-90920711D01*
X158337304Y-90968322D01*
X158403492Y-91003701D01*
X158475311Y-91025487D01*
X158550000Y-91032843D01*
X159550000Y-91032843D01*
X159624689Y-91025487D01*
X159696508Y-91003701D01*
X159762696Y-90968322D01*
X159820711Y-90920711D01*
X159868322Y-90862696D01*
X159903701Y-90796508D01*
X159925487Y-90724689D01*
X159932843Y-90650000D01*
X159932843Y-88372250D01*
X160169000Y-88372250D01*
X160169000Y-90687525D01*
X160183642Y-90761133D01*
X160212362Y-90830471D01*
X160254058Y-90892873D01*
X160307126Y-90945942D01*
X160369529Y-90987638D01*
X160438866Y-91016358D01*
X160512475Y-91031000D01*
X160827750Y-91031000D01*
X160923000Y-90935750D01*
X160923000Y-88277000D01*
X161177000Y-88277000D01*
X161177000Y-90935750D01*
X161272250Y-91031000D01*
X161587525Y-91031000D01*
X161661134Y-91016358D01*
X161730471Y-90987638D01*
X161792874Y-90945942D01*
X161845942Y-90892873D01*
X161887638Y-90830471D01*
X161916358Y-90761133D01*
X161931000Y-90687525D01*
X161931000Y-88372250D01*
X161835750Y-88277000D01*
X161177000Y-88277000D01*
X160923000Y-88277000D01*
X160264250Y-88277000D01*
X160169000Y-88372250D01*
X159932843Y-88372250D01*
X159932843Y-85650000D01*
X159929148Y-85612475D01*
X160169000Y-85612475D01*
X160169000Y-87927750D01*
X160264250Y-88023000D01*
X160923000Y-88023000D01*
X160923000Y-85364250D01*
X161177000Y-85364250D01*
X161177000Y-88023000D01*
X161835750Y-88023000D01*
X161931000Y-87927750D01*
X161931000Y-85612475D01*
X161916358Y-85538867D01*
X161887638Y-85469529D01*
X161845942Y-85407127D01*
X161792874Y-85354058D01*
X161730471Y-85312362D01*
X161661134Y-85283642D01*
X161587525Y-85269000D01*
X161272250Y-85269000D01*
X161177000Y-85364250D01*
X160923000Y-85364250D01*
X160827750Y-85269000D01*
X160512475Y-85269000D01*
X160438866Y-85283642D01*
X160369529Y-85312362D01*
X160307126Y-85354058D01*
X160254058Y-85407127D01*
X160212362Y-85469529D01*
X160183642Y-85538867D01*
X160169000Y-85612475D01*
X159929148Y-85612475D01*
X159925487Y-85575311D01*
X159903701Y-85503492D01*
X159868322Y-85437304D01*
X159820711Y-85379289D01*
X159762696Y-85331678D01*
X159696508Y-85296299D01*
X159624689Y-85274513D01*
X159575659Y-85269684D01*
X159573317Y-85245906D01*
X159542953Y-85145812D01*
X159541795Y-85143646D01*
X159493646Y-85053564D01*
X159443918Y-84992970D01*
X159443912Y-84992964D01*
X159427290Y-84972710D01*
X159407035Y-84956087D01*
X158793921Y-84342975D01*
X158777290Y-84322710D01*
X158696435Y-84256354D01*
X158604188Y-84207047D01*
X158504094Y-84176683D01*
X158426084Y-84169000D01*
X158426074Y-84169000D01*
X158400000Y-84166432D01*
X158373926Y-84169000D01*
X150581946Y-84169000D01*
X155983696Y-78767250D01*
X164719000Y-78767250D01*
X164719000Y-79332525D01*
X164733642Y-79406133D01*
X164762362Y-79475471D01*
X164804058Y-79537873D01*
X164857126Y-79590942D01*
X164919529Y-79632638D01*
X164988866Y-79661358D01*
X165062475Y-79676000D01*
X167417750Y-79676000D01*
X167513000Y-79580750D01*
X167513000Y-78672000D01*
X164814250Y-78672000D01*
X164719000Y-78767250D01*
X155983696Y-78767250D01*
X156993471Y-77757475D01*
X164719000Y-77757475D01*
X164719000Y-78322750D01*
X164814250Y-78418000D01*
X167513000Y-78418000D01*
X167513000Y-77509250D01*
X167417750Y-77414000D01*
X165062475Y-77414000D01*
X164988866Y-77428642D01*
X164919529Y-77457362D01*
X164857126Y-77499058D01*
X164804058Y-77552127D01*
X164762362Y-77614529D01*
X164733642Y-77683867D01*
X164719000Y-77757475D01*
X156993471Y-77757475D01*
X157407030Y-77343917D01*
X157427290Y-77327290D01*
X157477744Y-77265812D01*
X157493646Y-77246436D01*
X157510821Y-77214304D01*
X157542953Y-77154188D01*
X157573317Y-77054094D01*
X157581000Y-76976084D01*
X157581000Y-76976075D01*
X157583568Y-76950001D01*
X157581000Y-76923927D01*
X157581000Y-76529790D01*
X157624689Y-76525487D01*
X157696508Y-76503701D01*
X157762696Y-76468322D01*
X157820711Y-76420711D01*
X157868322Y-76362696D01*
X157903701Y-76296508D01*
X157925487Y-76224689D01*
X157932843Y-76150000D01*
X157932843Y-73872250D01*
X158169000Y-73872250D01*
X158169000Y-76187525D01*
X158183642Y-76261133D01*
X158212362Y-76330471D01*
X158254058Y-76392873D01*
X158307126Y-76445942D01*
X158369529Y-76487638D01*
X158438866Y-76516358D01*
X158512475Y-76531000D01*
X158827750Y-76531000D01*
X158923000Y-76435750D01*
X158923000Y-73777000D01*
X159177000Y-73777000D01*
X159177000Y-76435750D01*
X159272250Y-76531000D01*
X159587525Y-76531000D01*
X159661134Y-76516358D01*
X159730471Y-76487638D01*
X159792874Y-76445942D01*
X159845942Y-76392873D01*
X159887638Y-76330471D01*
X159916358Y-76261133D01*
X159931000Y-76187525D01*
X159931000Y-73872250D01*
X159835750Y-73777000D01*
X159177000Y-73777000D01*
X158923000Y-73777000D01*
X158264250Y-73777000D01*
X158169000Y-73872250D01*
X157932843Y-73872250D01*
X157932843Y-71150000D01*
X157929148Y-71112475D01*
X158169000Y-71112475D01*
X158169000Y-73427750D01*
X158264250Y-73523000D01*
X158923000Y-73523000D01*
X158923000Y-70864250D01*
X159177000Y-70864250D01*
X159177000Y-73523000D01*
X159835750Y-73523000D01*
X159931000Y-73427750D01*
X159931000Y-71112475D01*
X159916358Y-71038867D01*
X159887638Y-70969529D01*
X159845942Y-70907127D01*
X159792874Y-70854058D01*
X159730471Y-70812362D01*
X159661134Y-70783642D01*
X159587525Y-70769000D01*
X159272250Y-70769000D01*
X159177000Y-70864250D01*
X158923000Y-70864250D01*
X158827750Y-70769000D01*
X158512475Y-70769000D01*
X158438866Y-70783642D01*
X158369529Y-70812362D01*
X158307126Y-70854058D01*
X158254058Y-70907127D01*
X158212362Y-70969529D01*
X158183642Y-71038867D01*
X158169000Y-71112475D01*
X157929148Y-71112475D01*
X157925487Y-71075311D01*
X157903701Y-71003492D01*
X157868322Y-70937304D01*
X157820711Y-70879289D01*
X157762696Y-70831678D01*
X157696508Y-70796299D01*
X157624689Y-70774513D01*
X157550000Y-70767157D01*
X156550000Y-70767157D01*
X156475311Y-70774513D01*
X156403492Y-70796299D01*
X156337304Y-70831678D01*
X156279289Y-70879289D01*
X156231678Y-70937304D01*
X156196299Y-71003492D01*
X156174513Y-71075311D01*
X156167157Y-71150000D01*
X156167157Y-76150000D01*
X156174513Y-76224689D01*
X156196299Y-76296508D01*
X156231678Y-76362696D01*
X156279289Y-76420711D01*
X156337304Y-76468322D01*
X156403492Y-76503701D01*
X156475311Y-76525487D01*
X156519001Y-76529790D01*
X156519001Y-76730052D01*
X149880054Y-83369000D01*
X142216073Y-83369000D01*
X142189999Y-83366432D01*
X142163925Y-83369000D01*
X142163916Y-83369000D01*
X142085906Y-83376683D01*
X142009046Y-83399999D01*
X141985812Y-83407047D01*
X141893564Y-83456354D01*
X141835396Y-83504092D01*
X141812710Y-83522710D01*
X141796083Y-83542970D01*
X141410823Y-83928231D01*
X141241318Y-83876812D01*
X141060472Y-83859000D01*
X140939528Y-83859000D01*
X140758682Y-83876812D01*
X140526637Y-83947202D01*
X140312784Y-84061509D01*
X140125340Y-84215340D01*
X139971509Y-84402784D01*
X139857202Y-84616637D01*
X139786812Y-84848682D01*
X139763044Y-85090000D01*
X139696956Y-85090000D01*
X139673188Y-84848682D01*
X139602798Y-84616637D01*
X139488491Y-84402784D01*
X139334660Y-84215340D01*
X139147216Y-84061509D01*
X138933363Y-83947202D01*
X138701318Y-83876812D01*
X138520472Y-83859000D01*
X138399528Y-83859000D01*
X138218682Y-83876812D01*
X137986637Y-83947202D01*
X137772784Y-84061509D01*
X137585340Y-84215340D01*
X137431509Y-84402784D01*
X137317202Y-84616637D01*
X137246812Y-84848682D01*
X137223044Y-85090000D01*
X137246812Y-85331318D01*
X137298231Y-85500823D01*
X137252976Y-85546078D01*
X137252971Y-85546082D01*
X137182989Y-85616064D01*
X137182989Y-84577957D01*
X138003919Y-83757029D01*
X138003928Y-83757018D01*
X138049177Y-83711769D01*
X138218682Y-83763188D01*
X138399528Y-83781000D01*
X138520472Y-83781000D01*
X138701318Y-83763188D01*
X138933363Y-83692798D01*
X139147216Y-83578491D01*
X139334660Y-83424660D01*
X139488491Y-83237216D01*
X139602798Y-83023363D01*
X139673188Y-82791318D01*
X139696956Y-82550000D01*
X139763044Y-82550000D01*
X139786812Y-82791318D01*
X139857202Y-83023363D01*
X139971509Y-83237216D01*
X140125340Y-83424660D01*
X140312784Y-83578491D01*
X140526637Y-83692798D01*
X140758682Y-83763188D01*
X140939528Y-83781000D01*
X141060472Y-83781000D01*
X141241318Y-83763188D01*
X141473363Y-83692798D01*
X141687216Y-83578491D01*
X141874660Y-83424660D01*
X142028491Y-83237216D01*
X142111990Y-83081000D01*
X149423926Y-83081000D01*
X149450000Y-83083568D01*
X149476074Y-83081000D01*
X149476084Y-83081000D01*
X149554094Y-83073317D01*
X149654188Y-83042953D01*
X149746435Y-82993646D01*
X149827290Y-82927290D01*
X149843921Y-82907025D01*
X155407030Y-77343917D01*
X155427290Y-77327290D01*
X155477744Y-77265812D01*
X155493646Y-77246436D01*
X155542953Y-77154188D01*
X155555456Y-77112971D01*
X155573317Y-77054094D01*
X155581000Y-76976084D01*
X155581000Y-76976074D01*
X155583568Y-76950000D01*
X155581000Y-76923926D01*
X155581000Y-76529790D01*
X155624689Y-76525487D01*
X155696508Y-76503701D01*
X155762696Y-76468322D01*
X155820711Y-76420711D01*
X155868322Y-76362696D01*
X155903701Y-76296508D01*
X155925487Y-76224689D01*
X155932843Y-76150000D01*
X155932843Y-71150000D01*
X155925487Y-71075311D01*
X155903701Y-71003492D01*
X155868322Y-70937304D01*
X155820711Y-70879289D01*
X155762696Y-70831678D01*
X155696508Y-70796299D01*
X155624689Y-70774513D01*
X155550000Y-70767157D01*
X154550000Y-70767157D01*
X154475311Y-70774513D01*
X154403492Y-70796299D01*
X154337304Y-70831678D01*
X154279289Y-70879289D01*
X154231678Y-70937304D01*
X154196299Y-71003492D01*
X154174513Y-71075311D01*
X154167157Y-71150000D01*
X154167157Y-76150000D01*
X154174513Y-76224689D01*
X154196299Y-76296508D01*
X154231678Y-76362696D01*
X154279289Y-76420711D01*
X154337304Y-76468322D01*
X154403492Y-76503701D01*
X154475311Y-76525487D01*
X154519001Y-76529790D01*
X154519001Y-76730052D01*
X149230054Y-82019000D01*
X142111990Y-82019000D01*
X142028491Y-81862784D01*
X141874660Y-81675340D01*
X141687216Y-81521509D01*
X141473363Y-81407202D01*
X141241318Y-81336812D01*
X141060472Y-81319000D01*
X140939528Y-81319000D01*
X140758682Y-81336812D01*
X140526637Y-81407202D01*
X140312784Y-81521509D01*
X140125340Y-81675340D01*
X139971509Y-81862784D01*
X139857202Y-82076637D01*
X139786812Y-82308682D01*
X139763044Y-82550000D01*
X139696956Y-82550000D01*
X139673188Y-82308682D01*
X139602798Y-82076637D01*
X139488491Y-81862784D01*
X139334660Y-81675340D01*
X139147216Y-81521509D01*
X138933363Y-81407202D01*
X138701318Y-81336812D01*
X138520472Y-81319000D01*
X138399528Y-81319000D01*
X138218682Y-81336812D01*
X137986637Y-81407202D01*
X137772784Y-81521509D01*
X137585340Y-81675340D01*
X137431509Y-81862784D01*
X137317202Y-82076637D01*
X137246812Y-82308682D01*
X137223044Y-82550000D01*
X137246812Y-82791318D01*
X137298231Y-82960823D01*
X137252982Y-83006072D01*
X137252971Y-83006081D01*
X136628979Y-83630074D01*
X136628979Y-82591967D01*
X138003918Y-81217029D01*
X138003922Y-81217024D01*
X138049177Y-81171769D01*
X138218682Y-81223188D01*
X138399528Y-81241000D01*
X138520472Y-81241000D01*
X138701318Y-81223188D01*
X138933363Y-81152798D01*
X139147216Y-81038491D01*
X139334660Y-80884660D01*
X139488491Y-80697216D01*
X139602798Y-80483363D01*
X139673188Y-80251318D01*
X139696956Y-80010000D01*
X139763044Y-80010000D01*
X139786812Y-80251318D01*
X139857202Y-80483363D01*
X139971509Y-80697216D01*
X140125340Y-80884660D01*
X140312784Y-81038491D01*
X140526637Y-81152798D01*
X140758682Y-81223188D01*
X140939528Y-81241000D01*
X141060472Y-81241000D01*
X141241318Y-81223188D01*
X141473363Y-81152798D01*
X141687216Y-81038491D01*
X141874660Y-80884660D01*
X142028491Y-80697216D01*
X142111990Y-80541000D01*
X147963926Y-80541000D01*
X147990000Y-80543568D01*
X148016074Y-80541000D01*
X148016084Y-80541000D01*
X148094094Y-80533317D01*
X148194188Y-80502953D01*
X148286435Y-80453646D01*
X148367290Y-80387290D01*
X148383921Y-80367025D01*
X151407036Y-77343912D01*
X151427290Y-77327290D01*
X151443912Y-77307036D01*
X151443918Y-77307030D01*
X151493646Y-77246436D01*
X151542953Y-77154188D01*
X151555456Y-77112971D01*
X151573317Y-77054094D01*
X151581000Y-76976084D01*
X151581000Y-76976074D01*
X151583568Y-76950000D01*
X151581000Y-76923926D01*
X151581000Y-76529790D01*
X151624689Y-76525487D01*
X151696508Y-76503701D01*
X151762696Y-76468322D01*
X151820711Y-76420711D01*
X151868322Y-76362696D01*
X151903701Y-76296508D01*
X151925487Y-76224689D01*
X151932843Y-76150000D01*
X151932843Y-71150000D01*
X151925487Y-71075311D01*
X151903701Y-71003492D01*
X151868322Y-70937304D01*
X151820711Y-70879289D01*
X151762696Y-70831678D01*
X151696508Y-70796299D01*
X151624689Y-70774513D01*
X151550000Y-70767157D01*
X150550000Y-70767157D01*
X150475311Y-70774513D01*
X150403492Y-70796299D01*
X150337304Y-70831678D01*
X150279289Y-70879289D01*
X150231678Y-70937304D01*
X150196299Y-71003492D01*
X150174513Y-71075311D01*
X150167157Y-71150000D01*
X150167157Y-76150000D01*
X150174513Y-76224689D01*
X150196299Y-76296508D01*
X150231678Y-76362696D01*
X150279289Y-76420711D01*
X150337304Y-76468322D01*
X150403492Y-76503701D01*
X150475311Y-76525487D01*
X150519001Y-76529790D01*
X150519001Y-76730051D01*
X147770054Y-79479000D01*
X142111990Y-79479000D01*
X142028491Y-79322784D01*
X141874660Y-79135340D01*
X141687216Y-78981509D01*
X141473363Y-78867202D01*
X141241318Y-78796812D01*
X141060472Y-78779000D01*
X140939528Y-78779000D01*
X140758682Y-78796812D01*
X140526637Y-78867202D01*
X140312784Y-78981509D01*
X140125340Y-79135340D01*
X139971509Y-79322784D01*
X139857202Y-79536637D01*
X139786812Y-79768682D01*
X139763044Y-80010000D01*
X139696956Y-80010000D01*
X139673188Y-79768682D01*
X139602798Y-79536637D01*
X139488491Y-79322784D01*
X139334660Y-79135340D01*
X139147216Y-78981509D01*
X138933363Y-78867202D01*
X138701318Y-78796812D01*
X138520472Y-78779000D01*
X138399528Y-78779000D01*
X138218682Y-78796812D01*
X137986637Y-78867202D01*
X137772784Y-78981509D01*
X137585340Y-79135340D01*
X137431509Y-79322784D01*
X137317202Y-79536637D01*
X137246812Y-79768682D01*
X137223044Y-80010000D01*
X137246812Y-80251318D01*
X137298231Y-80420823D01*
X137252976Y-80466078D01*
X137252971Y-80466082D01*
X136074969Y-81644085D01*
X136074969Y-80605977D01*
X138003918Y-78677029D01*
X138003922Y-78677024D01*
X138049177Y-78631769D01*
X138218682Y-78683188D01*
X138399528Y-78701000D01*
X138520472Y-78701000D01*
X138701318Y-78683188D01*
X138933363Y-78612798D01*
X139147216Y-78498491D01*
X139334660Y-78344660D01*
X139488491Y-78157216D01*
X139602798Y-77943363D01*
X139673188Y-77711318D01*
X139696956Y-77470000D01*
X139763044Y-77470000D01*
X139786812Y-77711318D01*
X139857202Y-77943363D01*
X139971509Y-78157216D01*
X140125340Y-78344660D01*
X140312784Y-78498491D01*
X140526637Y-78612798D01*
X140758682Y-78683188D01*
X140939528Y-78701000D01*
X141060472Y-78701000D01*
X141241318Y-78683188D01*
X141473363Y-78612798D01*
X141687216Y-78498491D01*
X141874660Y-78344660D01*
X142028491Y-78157216D01*
X142111990Y-78001000D01*
X148503926Y-78001000D01*
X148530000Y-78003568D01*
X148556074Y-78001000D01*
X148556084Y-78001000D01*
X148634094Y-77993317D01*
X148734188Y-77962953D01*
X148826435Y-77913646D01*
X148907290Y-77847290D01*
X148923921Y-77827025D01*
X149407030Y-77343917D01*
X149427290Y-77327290D01*
X149477744Y-77265812D01*
X149493646Y-77246436D01*
X149542953Y-77154188D01*
X149555456Y-77112971D01*
X149573317Y-77054094D01*
X149581000Y-76976084D01*
X149581000Y-76976075D01*
X149583568Y-76950001D01*
X149581000Y-76923927D01*
X149581000Y-76529790D01*
X149624689Y-76525487D01*
X149696508Y-76503701D01*
X149762696Y-76468322D01*
X149820711Y-76420711D01*
X149868322Y-76362696D01*
X149903701Y-76296508D01*
X149925487Y-76224689D01*
X149932843Y-76150000D01*
X149932843Y-71150000D01*
X149925487Y-71075311D01*
X149903701Y-71003492D01*
X149868322Y-70937304D01*
X149820711Y-70879289D01*
X149762696Y-70831678D01*
X149696508Y-70796299D01*
X149624689Y-70774513D01*
X149550000Y-70767157D01*
X148550000Y-70767157D01*
X148475311Y-70774513D01*
X148403492Y-70796299D01*
X148337304Y-70831678D01*
X148279289Y-70879289D01*
X148231678Y-70937304D01*
X148196299Y-71003492D01*
X148174513Y-71075311D01*
X148167157Y-71150000D01*
X148167157Y-76150000D01*
X148174513Y-76224689D01*
X148196299Y-76296508D01*
X148231678Y-76362696D01*
X148279289Y-76420711D01*
X148337304Y-76468322D01*
X148403492Y-76503701D01*
X148475311Y-76525487D01*
X148519001Y-76529790D01*
X148519001Y-76730052D01*
X148310054Y-76939000D01*
X142111990Y-76939000D01*
X142028491Y-76782784D01*
X141874660Y-76595340D01*
X141687216Y-76441509D01*
X141473363Y-76327202D01*
X141241318Y-76256812D01*
X141060472Y-76239000D01*
X140939528Y-76239000D01*
X140758682Y-76256812D01*
X140526637Y-76327202D01*
X140312784Y-76441509D01*
X140125340Y-76595340D01*
X139971509Y-76782784D01*
X139857202Y-76996637D01*
X139786812Y-77228682D01*
X139763044Y-77470000D01*
X139696956Y-77470000D01*
X139673188Y-77228682D01*
X139602798Y-76996637D01*
X139488491Y-76782784D01*
X139334660Y-76595340D01*
X139147216Y-76441509D01*
X138933363Y-76327202D01*
X138701318Y-76256812D01*
X138520472Y-76239000D01*
X138399528Y-76239000D01*
X138218682Y-76256812D01*
X137986637Y-76327202D01*
X137772784Y-76441509D01*
X137585340Y-76595340D01*
X137431509Y-76782784D01*
X137317202Y-76996637D01*
X137246812Y-77228682D01*
X137223044Y-77470000D01*
X137246812Y-77711318D01*
X137298231Y-77880823D01*
X137252976Y-77926078D01*
X137252971Y-77926082D01*
X135520959Y-79658095D01*
X135520959Y-78619987D01*
X138003918Y-76137029D01*
X138003922Y-76137024D01*
X138049177Y-76091769D01*
X138218682Y-76143188D01*
X138399528Y-76161000D01*
X138520472Y-76161000D01*
X138701318Y-76143188D01*
X138933363Y-76072798D01*
X139147216Y-75958491D01*
X139334660Y-75804660D01*
X139488491Y-75617216D01*
X139602798Y-75403363D01*
X139673188Y-75171318D01*
X139696956Y-74930000D01*
X139673188Y-74688682D01*
X139602798Y-74456637D01*
X139488491Y-74242784D01*
X139334660Y-74055340D01*
X139147216Y-73901509D01*
X138933363Y-73787202D01*
X138701318Y-73716812D01*
X138520472Y-73699000D01*
X138399528Y-73699000D01*
X138218682Y-73716812D01*
X137986637Y-73787202D01*
X137772784Y-73901509D01*
X137585340Y-74055340D01*
X137431509Y-74242784D01*
X137317202Y-74456637D01*
X137246812Y-74688682D01*
X137223044Y-74930000D01*
X137246812Y-75171318D01*
X137298231Y-75340823D01*
X137252976Y-75386078D01*
X137252971Y-75386082D01*
X134632930Y-78006124D01*
X134612670Y-78022751D01*
X134596043Y-78043011D01*
X134596042Y-78043012D01*
X134546313Y-78103606D01*
X134497006Y-78195854D01*
X134466643Y-78295948D01*
X134456391Y-78400041D01*
X134458960Y-78426125D01*
X134458959Y-89247373D01*
X134456391Y-89273447D01*
X134458959Y-89299521D01*
X134458959Y-89299530D01*
X134466642Y-89377540D01*
X134497006Y-89477634D01*
X134546313Y-89569882D01*
X134612669Y-89650737D01*
X134632934Y-89667368D01*
X138514565Y-93549000D01*
X134416000Y-93549000D01*
X134416000Y-72612250D01*
X137229000Y-72612250D01*
X137229000Y-73277525D01*
X137243642Y-73351134D01*
X137272362Y-73420471D01*
X137314058Y-73482874D01*
X137367127Y-73535942D01*
X137429529Y-73577638D01*
X137498867Y-73606358D01*
X137572475Y-73621000D01*
X138237750Y-73621000D01*
X138333000Y-73525750D01*
X138333000Y-72517000D01*
X138587000Y-72517000D01*
X138587000Y-73525750D01*
X138682250Y-73621000D01*
X139347525Y-73621000D01*
X139421133Y-73606358D01*
X139490471Y-73577638D01*
X139552873Y-73535942D01*
X139605942Y-73482874D01*
X139647638Y-73420471D01*
X139676358Y-73351134D01*
X139691000Y-73277525D01*
X139691000Y-72612250D01*
X139595750Y-72517000D01*
X138587000Y-72517000D01*
X138333000Y-72517000D01*
X137324250Y-72517000D01*
X137229000Y-72612250D01*
X134416000Y-72612250D01*
X134416000Y-72390000D01*
X139763044Y-72390000D01*
X139786812Y-72631318D01*
X139857202Y-72863363D01*
X139971509Y-73077216D01*
X140125340Y-73264660D01*
X140312784Y-73418491D01*
X140526637Y-73532798D01*
X140758682Y-73603188D01*
X140939528Y-73621000D01*
X141060472Y-73621000D01*
X141241318Y-73603188D01*
X141473363Y-73532798D01*
X141687216Y-73418491D01*
X141874660Y-73264660D01*
X142028491Y-73077216D01*
X142111990Y-72921000D01*
X142176007Y-72921000D01*
X142202081Y-72923568D01*
X142228155Y-72921000D01*
X142228165Y-72921000D01*
X142261318Y-72917735D01*
X141410823Y-73768231D01*
X141241318Y-73716812D01*
X141060472Y-73699000D01*
X140939528Y-73699000D01*
X140758682Y-73716812D01*
X140526637Y-73787202D01*
X140312784Y-73901509D01*
X140125340Y-74055340D01*
X139971509Y-74242784D01*
X139857202Y-74456637D01*
X139786812Y-74688682D01*
X139763044Y-74930000D01*
X139786812Y-75171318D01*
X139857202Y-75403363D01*
X139971509Y-75617216D01*
X140125340Y-75804660D01*
X140312784Y-75958491D01*
X140526637Y-76072798D01*
X140758682Y-76143188D01*
X140939528Y-76161000D01*
X141060472Y-76161000D01*
X141241318Y-76143188D01*
X141473363Y-76072798D01*
X141687216Y-75958491D01*
X141874660Y-75804660D01*
X142028491Y-75617216D01*
X142142798Y-75403363D01*
X142213188Y-75171318D01*
X142236956Y-74930000D01*
X142213188Y-74688682D01*
X142161769Y-74519177D01*
X143249948Y-73431000D01*
X146167157Y-73431000D01*
X146167157Y-76150000D01*
X146174513Y-76224689D01*
X146196299Y-76296508D01*
X146231678Y-76362696D01*
X146279289Y-76420711D01*
X146337304Y-76468322D01*
X146403492Y-76503701D01*
X146475311Y-76525487D01*
X146550000Y-76532843D01*
X147550000Y-76532843D01*
X147624689Y-76525487D01*
X147696508Y-76503701D01*
X147762696Y-76468322D01*
X147820711Y-76420711D01*
X147868322Y-76362696D01*
X147903701Y-76296508D01*
X147925487Y-76224689D01*
X147932843Y-76150000D01*
X147932843Y-71150000D01*
X147925487Y-71075311D01*
X147903701Y-71003492D01*
X147868322Y-70937304D01*
X147820711Y-70879289D01*
X147762696Y-70831678D01*
X147696508Y-70796299D01*
X147624689Y-70774513D01*
X147550000Y-70767157D01*
X146550000Y-70767157D01*
X146475311Y-70774513D01*
X146403492Y-70796299D01*
X146337304Y-70831678D01*
X146279289Y-70879289D01*
X146231678Y-70937304D01*
X146196299Y-71003492D01*
X146174513Y-71075311D01*
X146167157Y-71150000D01*
X146167157Y-72369000D01*
X143056074Y-72369000D01*
X143030000Y-72366432D01*
X143003926Y-72369000D01*
X143003916Y-72369000D01*
X142970762Y-72372265D01*
X145312028Y-70031000D01*
X152194367Y-70031000D01*
X152221704Y-70082144D01*
X152298851Y-70176149D01*
X152392856Y-70253296D01*
X152494000Y-70307359D01*
X152494000Y-70772672D01*
X152475311Y-70774513D01*
X152403492Y-70796299D01*
X152337304Y-70831678D01*
X152279289Y-70879289D01*
X152231678Y-70937304D01*
X152196299Y-71003492D01*
X152174513Y-71075311D01*
X152167157Y-71150000D01*
X152167157Y-76150000D01*
X152174513Y-76224689D01*
X152196299Y-76296508D01*
X152231678Y-76362696D01*
X152279289Y-76420711D01*
X152337304Y-76468322D01*
X152403492Y-76503701D01*
X152475311Y-76525487D01*
X152550000Y-76532843D01*
X153550000Y-76532843D01*
X153624689Y-76525487D01*
X153696508Y-76503701D01*
X153762696Y-76468322D01*
X153820711Y-76420711D01*
X153868322Y-76362696D01*
X153903701Y-76296508D01*
X153925487Y-76224689D01*
X153932843Y-76150000D01*
X153932843Y-71150000D01*
X153925487Y-71075311D01*
X153903701Y-71003492D01*
X153868322Y-70937304D01*
X153820711Y-70879289D01*
X153762696Y-70831678D01*
X153696508Y-70796299D01*
X153624689Y-70774513D01*
X153556000Y-70767748D01*
X153556000Y-70307359D01*
X153657144Y-70253296D01*
X153751149Y-70176149D01*
X153828296Y-70082144D01*
X153869000Y-70005992D01*
X153869000Y-70012525D01*
X153883642Y-70086134D01*
X153912362Y-70155471D01*
X153954058Y-70217874D01*
X154007127Y-70270942D01*
X154069529Y-70312638D01*
X154138867Y-70341358D01*
X154212475Y-70356000D01*
X154552750Y-70356000D01*
X154648000Y-70260750D01*
X154648000Y-69627000D01*
X154902000Y-69627000D01*
X154902000Y-70260750D01*
X154997250Y-70356000D01*
X155337525Y-70356000D01*
X155411133Y-70341358D01*
X155480471Y-70312638D01*
X155542873Y-70270942D01*
X155546565Y-70267250D01*
X164719000Y-70267250D01*
X164719000Y-70832525D01*
X164733642Y-70906133D01*
X164762362Y-70975471D01*
X164804058Y-71037873D01*
X164857126Y-71090942D01*
X164919529Y-71132638D01*
X164988866Y-71161358D01*
X165062475Y-71176000D01*
X167417750Y-71176000D01*
X167513000Y-71080750D01*
X167513000Y-70172000D01*
X164814250Y-70172000D01*
X164719000Y-70267250D01*
X155546565Y-70267250D01*
X155595942Y-70217874D01*
X155637638Y-70155471D01*
X155666358Y-70086134D01*
X155681000Y-70012525D01*
X155681000Y-69722250D01*
X155585750Y-69627000D01*
X154902000Y-69627000D01*
X154648000Y-69627000D01*
X154628000Y-69627000D01*
X154628000Y-69373000D01*
X154648000Y-69373000D01*
X154648000Y-68739250D01*
X154902000Y-68739250D01*
X154902000Y-69373000D01*
X155585750Y-69373000D01*
X155681000Y-69277750D01*
X155681000Y-69257475D01*
X164719000Y-69257475D01*
X164719000Y-69822750D01*
X164814250Y-69918000D01*
X167513000Y-69918000D01*
X167513000Y-69009250D01*
X167417750Y-68914000D01*
X165062475Y-68914000D01*
X164988866Y-68928642D01*
X164919529Y-68957362D01*
X164857126Y-68999058D01*
X164804058Y-69052127D01*
X164762362Y-69114529D01*
X164733642Y-69183867D01*
X164719000Y-69257475D01*
X155681000Y-69257475D01*
X155681000Y-68987475D01*
X155666358Y-68913866D01*
X155637638Y-68844529D01*
X155595942Y-68782126D01*
X155542873Y-68729058D01*
X155480471Y-68687362D01*
X155411133Y-68658642D01*
X155337525Y-68644000D01*
X154997250Y-68644000D01*
X154902000Y-68739250D01*
X154648000Y-68739250D01*
X154552750Y-68644000D01*
X154212475Y-68644000D01*
X154138867Y-68658642D01*
X154069529Y-68687362D01*
X154007127Y-68729058D01*
X153954058Y-68782126D01*
X153912362Y-68844529D01*
X153883642Y-68913866D01*
X153869000Y-68987475D01*
X153869000Y-68994008D01*
X153828296Y-68917856D01*
X153751149Y-68823851D01*
X153657144Y-68746704D01*
X153549895Y-68689378D01*
X153433523Y-68654077D01*
X153312500Y-68642157D01*
X152737500Y-68642157D01*
X152616477Y-68654077D01*
X152500105Y-68689378D01*
X152392856Y-68746704D01*
X152298851Y-68823851D01*
X152221704Y-68917856D01*
X152194367Y-68969000D01*
X145118154Y-68969000D01*
X145092080Y-68966432D01*
X145066006Y-68969000D01*
X145065997Y-68969000D01*
X144987987Y-68976683D01*
X144887893Y-69007047D01*
X144827777Y-69039179D01*
X144795645Y-69056354D01*
X144735051Y-69106083D01*
X144714791Y-69122710D01*
X144698164Y-69142970D01*
X142066758Y-71774377D01*
X142028491Y-71702784D01*
X141874660Y-71515340D01*
X141687216Y-71361509D01*
X141473363Y-71247202D01*
X141241318Y-71176812D01*
X141060472Y-71159000D01*
X140939528Y-71159000D01*
X140758682Y-71176812D01*
X140526637Y-71247202D01*
X140312784Y-71361509D01*
X140125340Y-71515340D01*
X139971509Y-71702784D01*
X139857202Y-71916637D01*
X139786812Y-72148682D01*
X139763044Y-72390000D01*
X134416000Y-72390000D01*
X134416000Y-71502475D01*
X137229000Y-71502475D01*
X137229000Y-72167750D01*
X137324250Y-72263000D01*
X138333000Y-72263000D01*
X138333000Y-71254250D01*
X138587000Y-71254250D01*
X138587000Y-72263000D01*
X139595750Y-72263000D01*
X139691000Y-72167750D01*
X139691000Y-71502475D01*
X139676358Y-71428866D01*
X139647638Y-71359529D01*
X139605942Y-71297126D01*
X139552873Y-71244058D01*
X139490471Y-71202362D01*
X139421133Y-71173642D01*
X139347525Y-71159000D01*
X138682250Y-71159000D01*
X138587000Y-71254250D01*
X138333000Y-71254250D01*
X138237750Y-71159000D01*
X137572475Y-71159000D01*
X137498867Y-71173642D01*
X137429529Y-71202362D01*
X137367127Y-71244058D01*
X137314058Y-71297126D01*
X137272362Y-71359529D01*
X137243642Y-71428866D01*
X137229000Y-71502475D01*
X134416000Y-71502475D01*
X134416000Y-68376000D01*
X170384000Y-68376000D01*
X170384000Y-68973083D01*
X170384000Y-68973083D01*
G37*
X170384000Y-68973083D02*
X170360471Y-68957362D01*
X170291134Y-68928642D01*
X170217525Y-68914000D01*
X167862250Y-68914000D01*
X167767000Y-69009250D01*
X167767000Y-69918000D01*
X167787000Y-69918000D01*
X167787000Y-70172000D01*
X167767000Y-70172000D01*
X167767000Y-71080750D01*
X167862250Y-71176000D01*
X170217525Y-71176000D01*
X170291134Y-71161358D01*
X170360471Y-71132638D01*
X170384000Y-71116916D01*
X170384000Y-73222030D01*
X170326508Y-73191299D01*
X170254689Y-73169513D01*
X170180000Y-73162157D01*
X165100000Y-73162157D01*
X165025311Y-73169513D01*
X164953492Y-73191299D01*
X164887304Y-73226678D01*
X164829289Y-73274289D01*
X164781678Y-73332304D01*
X164746299Y-73398492D01*
X164724513Y-73470311D01*
X164717157Y-73545000D01*
X164717157Y-73764000D01*
X164014947Y-73764000D01*
X162793921Y-72542975D01*
X162777290Y-72522710D01*
X162696435Y-72456354D01*
X162604188Y-72407047D01*
X162504094Y-72376683D01*
X162426084Y-72369000D01*
X162426074Y-72369000D01*
X162400000Y-72366432D01*
X162373926Y-72369000D01*
X161932843Y-72369000D01*
X161932843Y-71150000D01*
X161925487Y-71075311D01*
X161903701Y-71003492D01*
X161868322Y-70937304D01*
X161820711Y-70879289D01*
X161762696Y-70831678D01*
X161696508Y-70796299D01*
X161624689Y-70774513D01*
X161550000Y-70767157D01*
X160550000Y-70767157D01*
X160475311Y-70774513D01*
X160403492Y-70796299D01*
X160337304Y-70831678D01*
X160279289Y-70879289D01*
X160231678Y-70937304D01*
X160196299Y-71003492D01*
X160174513Y-71075311D01*
X160167157Y-71150000D01*
X160167157Y-76150000D01*
X160174513Y-76224689D01*
X160196299Y-76296508D01*
X160231678Y-76362696D01*
X160279289Y-76420711D01*
X160337304Y-76468322D01*
X160403492Y-76503701D01*
X160475311Y-76525487D01*
X160550000Y-76532843D01*
X161550000Y-76532843D01*
X161624689Y-76525487D01*
X161696508Y-76503701D01*
X161762696Y-76468322D01*
X161820711Y-76420711D01*
X161868322Y-76362696D01*
X161903701Y-76296508D01*
X161925487Y-76224689D01*
X161932843Y-76150000D01*
X161932843Y-73431000D01*
X162180054Y-73431000D01*
X163401083Y-74652030D01*
X163417710Y-74672290D01*
X163437970Y-74688917D01*
X163498564Y-74738646D01*
X163590812Y-74787953D01*
X163690906Y-74818317D01*
X163768916Y-74826000D01*
X163768926Y-74826000D01*
X163795000Y-74828568D01*
X163821074Y-74826000D01*
X164717157Y-74826000D01*
X164717157Y-75045000D01*
X164724513Y-75119689D01*
X164746299Y-75191508D01*
X164781678Y-75257696D01*
X164829289Y-75315711D01*
X164887304Y-75363322D01*
X164953492Y-75398701D01*
X165025311Y-75420487D01*
X165100000Y-75427843D01*
X170180000Y-75427843D01*
X170254689Y-75420487D01*
X170326508Y-75398701D01*
X170384000Y-75367970D01*
X170384000Y-77473084D01*
X170360471Y-77457362D01*
X170291134Y-77428642D01*
X170217525Y-77414000D01*
X167862250Y-77414000D01*
X167767000Y-77509250D01*
X167767000Y-78418000D01*
X167787000Y-78418000D01*
X167787000Y-78672000D01*
X167767000Y-78672000D01*
X167767000Y-79580750D01*
X167862250Y-79676000D01*
X170217525Y-79676000D01*
X170291134Y-79661358D01*
X170360471Y-79632638D01*
X170384000Y-79616916D01*
X170384001Y-93549000D01*
X154401946Y-93549000D01*
X156918104Y-91032843D01*
X157550000Y-91032843D01*
X157624689Y-91025487D01*
X157696508Y-91003701D01*
X157762696Y-90968322D01*
X157820711Y-90920711D01*
X157868322Y-90862696D01*
X157903701Y-90796508D01*
X157925487Y-90724689D01*
X157932843Y-90650000D01*
X157932843Y-85650000D01*
X157925487Y-85575311D01*
X157903701Y-85503492D01*
X157868322Y-85437304D01*
X157820711Y-85379289D01*
X157762696Y-85331678D01*
X157696508Y-85296299D01*
X157624689Y-85274513D01*
X157550000Y-85267157D01*
X156550000Y-85267157D01*
X156475311Y-85274513D01*
X156403492Y-85296299D01*
X156337304Y-85331678D01*
X156279289Y-85379289D01*
X156231678Y-85437304D01*
X156196299Y-85503492D01*
X156174513Y-85575311D01*
X156167157Y-85650000D01*
X156167157Y-90281896D01*
X155932843Y-90516210D01*
X155932843Y-85650000D01*
X155925487Y-85575311D01*
X155903701Y-85503492D01*
X155868322Y-85437304D01*
X155820711Y-85379289D01*
X155762696Y-85331678D01*
X155696508Y-85296299D01*
X155624689Y-85274513D01*
X155550000Y-85267157D01*
X154550000Y-85267157D01*
X154475311Y-85274513D01*
X154403492Y-85296299D01*
X154337304Y-85331678D01*
X154279289Y-85379289D01*
X154231678Y-85437304D01*
X154196299Y-85503492D01*
X154174513Y-85575311D01*
X154167157Y-85650000D01*
X154167157Y-90181896D01*
X153932843Y-90416210D01*
X153932843Y-85650000D01*
X153925487Y-85575311D01*
X153903701Y-85503492D01*
X153868322Y-85437304D01*
X153820711Y-85379289D01*
X153762696Y-85331678D01*
X153696508Y-85296299D01*
X153624689Y-85274513D01*
X153550000Y-85267157D01*
X152550000Y-85267157D01*
X152475311Y-85274513D01*
X152403492Y-85296299D01*
X152337304Y-85331678D01*
X152279289Y-85379289D01*
X152231678Y-85437304D01*
X152196299Y-85503492D01*
X152174513Y-85575311D01*
X152167157Y-85650000D01*
X152167157Y-90281896D01*
X151932843Y-90516210D01*
X151932843Y-85650000D01*
X151925487Y-85575311D01*
X151903701Y-85503492D01*
X151868322Y-85437304D01*
X151820711Y-85379289D01*
X151762696Y-85331678D01*
X151696508Y-85296299D01*
X151624689Y-85274513D01*
X151550000Y-85267157D01*
X150550000Y-85267157D01*
X150475311Y-85274513D01*
X150403492Y-85296299D01*
X150337304Y-85331678D01*
X150279289Y-85379289D01*
X150231678Y-85437304D01*
X150196299Y-85503492D01*
X150174513Y-85575311D01*
X150167157Y-85650000D01*
X150167157Y-90281896D01*
X149932843Y-90516210D01*
X149932843Y-85650000D01*
X149925487Y-85575311D01*
X149903701Y-85503492D01*
X149868322Y-85437304D01*
X149820711Y-85379289D01*
X149762696Y-85331678D01*
X149696508Y-85296299D01*
X149624689Y-85274513D01*
X149550000Y-85267157D01*
X148550000Y-85267157D01*
X148475311Y-85274513D01*
X148403492Y-85296299D01*
X148337304Y-85331678D01*
X148279289Y-85379289D01*
X148231678Y-85437304D01*
X148196299Y-85503492D01*
X148174513Y-85575311D01*
X148167157Y-85650000D01*
X148167157Y-90281897D01*
X147932843Y-90516211D01*
X147932843Y-85650000D01*
X147925487Y-85575311D01*
X147903701Y-85503492D01*
X147868322Y-85437304D01*
X147820711Y-85379289D01*
X147762696Y-85331678D01*
X147696508Y-85296299D01*
X147624689Y-85274513D01*
X147550000Y-85267157D01*
X146550000Y-85267157D01*
X146475311Y-85274513D01*
X146403492Y-85296299D01*
X146337304Y-85331678D01*
X146279289Y-85379289D01*
X146231678Y-85437304D01*
X146196299Y-85503492D01*
X146174513Y-85575311D01*
X146167157Y-85650000D01*
X146167157Y-90523001D01*
X140248027Y-90523001D01*
X138586025Y-88861000D01*
X138587002Y-88861000D01*
X138587002Y-88759188D01*
X138776981Y-88819495D01*
X139002949Y-88734799D01*
X139208052Y-88607647D01*
X139384408Y-88442924D01*
X139525239Y-88246961D01*
X139625134Y-88027288D01*
X139649489Y-87946980D01*
X139588627Y-87757000D01*
X138587000Y-87757000D01*
X138587000Y-87777000D01*
X138333000Y-87777000D01*
X138333000Y-87757000D01*
X138313000Y-87757000D01*
X138313000Y-87503000D01*
X138333000Y-87503000D01*
X138333000Y-86500813D01*
X138587000Y-86500813D01*
X138587000Y-87503000D01*
X139588627Y-87503000D01*
X139649489Y-87313020D01*
X139625134Y-87232712D01*
X139525239Y-87013039D01*
X139384408Y-86817076D01*
X139208052Y-86652353D01*
X139002949Y-86525201D01*
X138776981Y-86440505D01*
X138587000Y-86500813D01*
X138333000Y-86500813D01*
X138143019Y-86440505D01*
X137917051Y-86525201D01*
X137736999Y-86636823D01*
X137736999Y-86563947D01*
X138003918Y-86297029D01*
X138003922Y-86297024D01*
X138049177Y-86251769D01*
X138218682Y-86303188D01*
X138399528Y-86321000D01*
X138520472Y-86321000D01*
X138701318Y-86303188D01*
X138933363Y-86232798D01*
X139147216Y-86118491D01*
X139334660Y-85964660D01*
X139488491Y-85777216D01*
X139602798Y-85563363D01*
X139673188Y-85331318D01*
X139696956Y-85090000D01*
X139763044Y-85090000D01*
X139786812Y-85331318D01*
X139857202Y-85563363D01*
X139971509Y-85777216D01*
X140125340Y-85964660D01*
X140312784Y-86118491D01*
X140526637Y-86232798D01*
X140758682Y-86303188D01*
X140939528Y-86321000D01*
X141060472Y-86321000D01*
X141241318Y-86303188D01*
X141473363Y-86232798D01*
X141687216Y-86118491D01*
X141874660Y-85964660D01*
X142028491Y-85777216D01*
X142142798Y-85563363D01*
X142213188Y-85331318D01*
X142236956Y-85090000D01*
X142213188Y-84848682D01*
X142161769Y-84679177D01*
X142409947Y-84431000D01*
X143448052Y-84431000D01*
X141492974Y-86386080D01*
X141492969Y-86386084D01*
X141410823Y-86468231D01*
X141241318Y-86416812D01*
X141060472Y-86399000D01*
X140939528Y-86399000D01*
X140758682Y-86416812D01*
X140526637Y-86487202D01*
X140312784Y-86601509D01*
X140125340Y-86755340D01*
X139971509Y-86942784D01*
X139857202Y-87156637D01*
X139786812Y-87388682D01*
X139763044Y-87630000D01*
X139786812Y-87871318D01*
X139857202Y-88103363D01*
X139971509Y-88317216D01*
X140125340Y-88504660D01*
X140312784Y-88658491D01*
X140526637Y-88772798D01*
X140758682Y-88843188D01*
X140939528Y-88861000D01*
X141060472Y-88861000D01*
X141241318Y-88843188D01*
X141473363Y-88772798D01*
X141687216Y-88658491D01*
X141874660Y-88504660D01*
X142028491Y-88317216D01*
X142142798Y-88103363D01*
X142213188Y-87871318D01*
X142236956Y-87630000D01*
X142213188Y-87388682D01*
X142161769Y-87219177D01*
X142243916Y-87137031D01*
X142243920Y-87137026D01*
X144149948Y-85231000D01*
X158180053Y-85231000D01*
X158306231Y-85357178D01*
X158279289Y-85379289D01*
X158231678Y-85437304D01*
X158196299Y-85503492D01*
X158174513Y-85575311D01*
X158167157Y-85650000D01*
X158167157Y-90650000D01*
X158174513Y-90724689D01*
X158196299Y-90796508D01*
X158231678Y-90862696D01*
X158279289Y-90920711D01*
X158337304Y-90968322D01*
X158403492Y-91003701D01*
X158475311Y-91025487D01*
X158550000Y-91032843D01*
X159550000Y-91032843D01*
X159624689Y-91025487D01*
X159696508Y-91003701D01*
X159762696Y-90968322D01*
X159820711Y-90920711D01*
X159868322Y-90862696D01*
X159903701Y-90796508D01*
X159925487Y-90724689D01*
X159932843Y-90650000D01*
X159932843Y-88372250D01*
X160169000Y-88372250D01*
X160169000Y-90687525D01*
X160183642Y-90761133D01*
X160212362Y-90830471D01*
X160254058Y-90892873D01*
X160307126Y-90945942D01*
X160369529Y-90987638D01*
X160438866Y-91016358D01*
X160512475Y-91031000D01*
X160827750Y-91031000D01*
X160923000Y-90935750D01*
X160923000Y-88277000D01*
X161177000Y-88277000D01*
X161177000Y-90935750D01*
X161272250Y-91031000D01*
X161587525Y-91031000D01*
X161661134Y-91016358D01*
X161730471Y-90987638D01*
X161792874Y-90945942D01*
X161845942Y-90892873D01*
X161887638Y-90830471D01*
X161916358Y-90761133D01*
X161931000Y-90687525D01*
X161931000Y-88372250D01*
X161835750Y-88277000D01*
X161177000Y-88277000D01*
X160923000Y-88277000D01*
X160264250Y-88277000D01*
X160169000Y-88372250D01*
X159932843Y-88372250D01*
X159932843Y-85650000D01*
X159929148Y-85612475D01*
X160169000Y-85612475D01*
X160169000Y-87927750D01*
X160264250Y-88023000D01*
X160923000Y-88023000D01*
X160923000Y-85364250D01*
X161177000Y-85364250D01*
X161177000Y-88023000D01*
X161835750Y-88023000D01*
X161931000Y-87927750D01*
X161931000Y-85612475D01*
X161916358Y-85538867D01*
X161887638Y-85469529D01*
X161845942Y-85407127D01*
X161792874Y-85354058D01*
X161730471Y-85312362D01*
X161661134Y-85283642D01*
X161587525Y-85269000D01*
X161272250Y-85269000D01*
X161177000Y-85364250D01*
X160923000Y-85364250D01*
X160827750Y-85269000D01*
X160512475Y-85269000D01*
X160438866Y-85283642D01*
X160369529Y-85312362D01*
X160307126Y-85354058D01*
X160254058Y-85407127D01*
X160212362Y-85469529D01*
X160183642Y-85538867D01*
X160169000Y-85612475D01*
X159929148Y-85612475D01*
X159925487Y-85575311D01*
X159903701Y-85503492D01*
X159868322Y-85437304D01*
X159820711Y-85379289D01*
X159762696Y-85331678D01*
X159696508Y-85296299D01*
X159624689Y-85274513D01*
X159575659Y-85269684D01*
X159573317Y-85245906D01*
X159542953Y-85145812D01*
X159541795Y-85143646D01*
X159493646Y-85053564D01*
X159443918Y-84992970D01*
X159443912Y-84992964D01*
X159427290Y-84972710D01*
X159407035Y-84956087D01*
X158793921Y-84342975D01*
X158777290Y-84322710D01*
X158696435Y-84256354D01*
X158604188Y-84207047D01*
X158504094Y-84176683D01*
X158426084Y-84169000D01*
X158426074Y-84169000D01*
X158400000Y-84166432D01*
X158373926Y-84169000D01*
X150581946Y-84169000D01*
X155983696Y-78767250D01*
X164719000Y-78767250D01*
X164719000Y-79332525D01*
X164733642Y-79406133D01*
X164762362Y-79475471D01*
X164804058Y-79537873D01*
X164857126Y-79590942D01*
X164919529Y-79632638D01*
X164988866Y-79661358D01*
X165062475Y-79676000D01*
X167417750Y-79676000D01*
X167513000Y-79580750D01*
X167513000Y-78672000D01*
X164814250Y-78672000D01*
X164719000Y-78767250D01*
X155983696Y-78767250D01*
X156993471Y-77757475D01*
X164719000Y-77757475D01*
X164719000Y-78322750D01*
X164814250Y-78418000D01*
X167513000Y-78418000D01*
X167513000Y-77509250D01*
X167417750Y-77414000D01*
X165062475Y-77414000D01*
X164988866Y-77428642D01*
X164919529Y-77457362D01*
X164857126Y-77499058D01*
X164804058Y-77552127D01*
X164762362Y-77614529D01*
X164733642Y-77683867D01*
X164719000Y-77757475D01*
X156993471Y-77757475D01*
X157407030Y-77343917D01*
X157427290Y-77327290D01*
X157477744Y-77265812D01*
X157493646Y-77246436D01*
X157510821Y-77214304D01*
X157542953Y-77154188D01*
X157573317Y-77054094D01*
X157581000Y-76976084D01*
X157581000Y-76976075D01*
X157583568Y-76950001D01*
X157581000Y-76923927D01*
X157581000Y-76529790D01*
X157624689Y-76525487D01*
X157696508Y-76503701D01*
X157762696Y-76468322D01*
X157820711Y-76420711D01*
X157868322Y-76362696D01*
X157903701Y-76296508D01*
X157925487Y-76224689D01*
X157932843Y-76150000D01*
X157932843Y-73872250D01*
X158169000Y-73872250D01*
X158169000Y-76187525D01*
X158183642Y-76261133D01*
X158212362Y-76330471D01*
X158254058Y-76392873D01*
X158307126Y-76445942D01*
X158369529Y-76487638D01*
X158438866Y-76516358D01*
X158512475Y-76531000D01*
X158827750Y-76531000D01*
X158923000Y-76435750D01*
X158923000Y-73777000D01*
X159177000Y-73777000D01*
X159177000Y-76435750D01*
X159272250Y-76531000D01*
X159587525Y-76531000D01*
X159661134Y-76516358D01*
X159730471Y-76487638D01*
X159792874Y-76445942D01*
X159845942Y-76392873D01*
X159887638Y-76330471D01*
X159916358Y-76261133D01*
X159931000Y-76187525D01*
X159931000Y-73872250D01*
X159835750Y-73777000D01*
X159177000Y-73777000D01*
X158923000Y-73777000D01*
X158264250Y-73777000D01*
X158169000Y-73872250D01*
X157932843Y-73872250D01*
X157932843Y-71150000D01*
X157929148Y-71112475D01*
X158169000Y-71112475D01*
X158169000Y-73427750D01*
X158264250Y-73523000D01*
X158923000Y-73523000D01*
X158923000Y-70864250D01*
X159177000Y-70864250D01*
X159177000Y-73523000D01*
X159835750Y-73523000D01*
X159931000Y-73427750D01*
X159931000Y-71112475D01*
X159916358Y-71038867D01*
X159887638Y-70969529D01*
X159845942Y-70907127D01*
X159792874Y-70854058D01*
X159730471Y-70812362D01*
X159661134Y-70783642D01*
X159587525Y-70769000D01*
X159272250Y-70769000D01*
X159177000Y-70864250D01*
X158923000Y-70864250D01*
X158827750Y-70769000D01*
X158512475Y-70769000D01*
X158438866Y-70783642D01*
X158369529Y-70812362D01*
X158307126Y-70854058D01*
X158254058Y-70907127D01*
X158212362Y-70969529D01*
X158183642Y-71038867D01*
X158169000Y-71112475D01*
X157929148Y-71112475D01*
X157925487Y-71075311D01*
X157903701Y-71003492D01*
X157868322Y-70937304D01*
X157820711Y-70879289D01*
X157762696Y-70831678D01*
X157696508Y-70796299D01*
X157624689Y-70774513D01*
X157550000Y-70767157D01*
X156550000Y-70767157D01*
X156475311Y-70774513D01*
X156403492Y-70796299D01*
X156337304Y-70831678D01*
X156279289Y-70879289D01*
X156231678Y-70937304D01*
X156196299Y-71003492D01*
X156174513Y-71075311D01*
X156167157Y-71150000D01*
X156167157Y-76150000D01*
X156174513Y-76224689D01*
X156196299Y-76296508D01*
X156231678Y-76362696D01*
X156279289Y-76420711D01*
X156337304Y-76468322D01*
X156403492Y-76503701D01*
X156475311Y-76525487D01*
X156519001Y-76529790D01*
X156519001Y-76730052D01*
X149880054Y-83369000D01*
X142216073Y-83369000D01*
X142189999Y-83366432D01*
X142163925Y-83369000D01*
X142163916Y-83369000D01*
X142085906Y-83376683D01*
X142009046Y-83399999D01*
X141985812Y-83407047D01*
X141893564Y-83456354D01*
X141835396Y-83504092D01*
X141812710Y-83522710D01*
X141796083Y-83542970D01*
X141410823Y-83928231D01*
X141241318Y-83876812D01*
X141060472Y-83859000D01*
X140939528Y-83859000D01*
X140758682Y-83876812D01*
X140526637Y-83947202D01*
X140312784Y-84061509D01*
X140125340Y-84215340D01*
X139971509Y-84402784D01*
X139857202Y-84616637D01*
X139786812Y-84848682D01*
X139763044Y-85090000D01*
X139696956Y-85090000D01*
X139673188Y-84848682D01*
X139602798Y-84616637D01*
X139488491Y-84402784D01*
X139334660Y-84215340D01*
X139147216Y-84061509D01*
X138933363Y-83947202D01*
X138701318Y-83876812D01*
X138520472Y-83859000D01*
X138399528Y-83859000D01*
X138218682Y-83876812D01*
X137986637Y-83947202D01*
X137772784Y-84061509D01*
X137585340Y-84215340D01*
X137431509Y-84402784D01*
X137317202Y-84616637D01*
X137246812Y-84848682D01*
X137223044Y-85090000D01*
X137246812Y-85331318D01*
X137298231Y-85500823D01*
X137252976Y-85546078D01*
X137252971Y-85546082D01*
X137182989Y-85616064D01*
X137182989Y-84577957D01*
X138003919Y-83757029D01*
X138003928Y-83757018D01*
X138049177Y-83711769D01*
X138218682Y-83763188D01*
X138399528Y-83781000D01*
X138520472Y-83781000D01*
X138701318Y-83763188D01*
X138933363Y-83692798D01*
X139147216Y-83578491D01*
X139334660Y-83424660D01*
X139488491Y-83237216D01*
X139602798Y-83023363D01*
X139673188Y-82791318D01*
X139696956Y-82550000D01*
X139763044Y-82550000D01*
X139786812Y-82791318D01*
X139857202Y-83023363D01*
X139971509Y-83237216D01*
X140125340Y-83424660D01*
X140312784Y-83578491D01*
X140526637Y-83692798D01*
X140758682Y-83763188D01*
X140939528Y-83781000D01*
X141060472Y-83781000D01*
X141241318Y-83763188D01*
X141473363Y-83692798D01*
X141687216Y-83578491D01*
X141874660Y-83424660D01*
X142028491Y-83237216D01*
X142111990Y-83081000D01*
X149423926Y-83081000D01*
X149450000Y-83083568D01*
X149476074Y-83081000D01*
X149476084Y-83081000D01*
X149554094Y-83073317D01*
X149654188Y-83042953D01*
X149746435Y-82993646D01*
X149827290Y-82927290D01*
X149843921Y-82907025D01*
X155407030Y-77343917D01*
X155427290Y-77327290D01*
X155477744Y-77265812D01*
X155493646Y-77246436D01*
X155542953Y-77154188D01*
X155555456Y-77112971D01*
X155573317Y-77054094D01*
X155581000Y-76976084D01*
X155581000Y-76976074D01*
X155583568Y-76950000D01*
X155581000Y-76923926D01*
X155581000Y-76529790D01*
X155624689Y-76525487D01*
X155696508Y-76503701D01*
X155762696Y-76468322D01*
X155820711Y-76420711D01*
X155868322Y-76362696D01*
X155903701Y-76296508D01*
X155925487Y-76224689D01*
X155932843Y-76150000D01*
X155932843Y-71150000D01*
X155925487Y-71075311D01*
X155903701Y-71003492D01*
X155868322Y-70937304D01*
X155820711Y-70879289D01*
X155762696Y-70831678D01*
X155696508Y-70796299D01*
X155624689Y-70774513D01*
X155550000Y-70767157D01*
X154550000Y-70767157D01*
X154475311Y-70774513D01*
X154403492Y-70796299D01*
X154337304Y-70831678D01*
X154279289Y-70879289D01*
X154231678Y-70937304D01*
X154196299Y-71003492D01*
X154174513Y-71075311D01*
X154167157Y-71150000D01*
X154167157Y-76150000D01*
X154174513Y-76224689D01*
X154196299Y-76296508D01*
X154231678Y-76362696D01*
X154279289Y-76420711D01*
X154337304Y-76468322D01*
X154403492Y-76503701D01*
X154475311Y-76525487D01*
X154519001Y-76529790D01*
X154519001Y-76730052D01*
X149230054Y-82019000D01*
X142111990Y-82019000D01*
X142028491Y-81862784D01*
X141874660Y-81675340D01*
X141687216Y-81521509D01*
X141473363Y-81407202D01*
X141241318Y-81336812D01*
X141060472Y-81319000D01*
X140939528Y-81319000D01*
X140758682Y-81336812D01*
X140526637Y-81407202D01*
X140312784Y-81521509D01*
X140125340Y-81675340D01*
X139971509Y-81862784D01*
X139857202Y-82076637D01*
X139786812Y-82308682D01*
X139763044Y-82550000D01*
X139696956Y-82550000D01*
X139673188Y-82308682D01*
X139602798Y-82076637D01*
X139488491Y-81862784D01*
X139334660Y-81675340D01*
X139147216Y-81521509D01*
X138933363Y-81407202D01*
X138701318Y-81336812D01*
X138520472Y-81319000D01*
X138399528Y-81319000D01*
X138218682Y-81336812D01*
X137986637Y-81407202D01*
X137772784Y-81521509D01*
X137585340Y-81675340D01*
X137431509Y-81862784D01*
X137317202Y-82076637D01*
X137246812Y-82308682D01*
X137223044Y-82550000D01*
X137246812Y-82791318D01*
X137298231Y-82960823D01*
X137252982Y-83006072D01*
X137252971Y-83006081D01*
X136628979Y-83630074D01*
X136628979Y-82591967D01*
X138003918Y-81217029D01*
X138003922Y-81217024D01*
X138049177Y-81171769D01*
X138218682Y-81223188D01*
X138399528Y-81241000D01*
X138520472Y-81241000D01*
X138701318Y-81223188D01*
X138933363Y-81152798D01*
X139147216Y-81038491D01*
X139334660Y-80884660D01*
X139488491Y-80697216D01*
X139602798Y-80483363D01*
X139673188Y-80251318D01*
X139696956Y-80010000D01*
X139763044Y-80010000D01*
X139786812Y-80251318D01*
X139857202Y-80483363D01*
X139971509Y-80697216D01*
X140125340Y-80884660D01*
X140312784Y-81038491D01*
X140526637Y-81152798D01*
X140758682Y-81223188D01*
X140939528Y-81241000D01*
X141060472Y-81241000D01*
X141241318Y-81223188D01*
X141473363Y-81152798D01*
X141687216Y-81038491D01*
X141874660Y-80884660D01*
X142028491Y-80697216D01*
X142111990Y-80541000D01*
X147963926Y-80541000D01*
X147990000Y-80543568D01*
X148016074Y-80541000D01*
X148016084Y-80541000D01*
X148094094Y-80533317D01*
X148194188Y-80502953D01*
X148286435Y-80453646D01*
X148367290Y-80387290D01*
X148383921Y-80367025D01*
X151407036Y-77343912D01*
X151427290Y-77327290D01*
X151443912Y-77307036D01*
X151443918Y-77307030D01*
X151493646Y-77246436D01*
X151542953Y-77154188D01*
X151555456Y-77112971D01*
X151573317Y-77054094D01*
X151581000Y-76976084D01*
X151581000Y-76976074D01*
X151583568Y-76950000D01*
X151581000Y-76923926D01*
X151581000Y-76529790D01*
X151624689Y-76525487D01*
X151696508Y-76503701D01*
X151762696Y-76468322D01*
X151820711Y-76420711D01*
X151868322Y-76362696D01*
X151903701Y-76296508D01*
X151925487Y-76224689D01*
X151932843Y-76150000D01*
X151932843Y-71150000D01*
X151925487Y-71075311D01*
X151903701Y-71003492D01*
X151868322Y-70937304D01*
X151820711Y-70879289D01*
X151762696Y-70831678D01*
X151696508Y-70796299D01*
X151624689Y-70774513D01*
X151550000Y-70767157D01*
X150550000Y-70767157D01*
X150475311Y-70774513D01*
X150403492Y-70796299D01*
X150337304Y-70831678D01*
X150279289Y-70879289D01*
X150231678Y-70937304D01*
X150196299Y-71003492D01*
X150174513Y-71075311D01*
X150167157Y-71150000D01*
X150167157Y-76150000D01*
X150174513Y-76224689D01*
X150196299Y-76296508D01*
X150231678Y-76362696D01*
X150279289Y-76420711D01*
X150337304Y-76468322D01*
X150403492Y-76503701D01*
X150475311Y-76525487D01*
X150519001Y-76529790D01*
X150519001Y-76730051D01*
X147770054Y-79479000D01*
X142111990Y-79479000D01*
X142028491Y-79322784D01*
X141874660Y-79135340D01*
X141687216Y-78981509D01*
X141473363Y-78867202D01*
X141241318Y-78796812D01*
X141060472Y-78779000D01*
X140939528Y-78779000D01*
X140758682Y-78796812D01*
X140526637Y-78867202D01*
X140312784Y-78981509D01*
X140125340Y-79135340D01*
X139971509Y-79322784D01*
X139857202Y-79536637D01*
X139786812Y-79768682D01*
X139763044Y-80010000D01*
X139696956Y-80010000D01*
X139673188Y-79768682D01*
X139602798Y-79536637D01*
X139488491Y-79322784D01*
X139334660Y-79135340D01*
X139147216Y-78981509D01*
X138933363Y-78867202D01*
X138701318Y-78796812D01*
X138520472Y-78779000D01*
X138399528Y-78779000D01*
X138218682Y-78796812D01*
X137986637Y-78867202D01*
X137772784Y-78981509D01*
X137585340Y-79135340D01*
X137431509Y-79322784D01*
X137317202Y-79536637D01*
X137246812Y-79768682D01*
X137223044Y-80010000D01*
X137246812Y-80251318D01*
X137298231Y-80420823D01*
X137252976Y-80466078D01*
X137252971Y-80466082D01*
X136074969Y-81644085D01*
X136074969Y-80605977D01*
X138003918Y-78677029D01*
X138003922Y-78677024D01*
X138049177Y-78631769D01*
X138218682Y-78683188D01*
X138399528Y-78701000D01*
X138520472Y-78701000D01*
X138701318Y-78683188D01*
X138933363Y-78612798D01*
X139147216Y-78498491D01*
X139334660Y-78344660D01*
X139488491Y-78157216D01*
X139602798Y-77943363D01*
X139673188Y-77711318D01*
X139696956Y-77470000D01*
X139763044Y-77470000D01*
X139786812Y-77711318D01*
X139857202Y-77943363D01*
X139971509Y-78157216D01*
X140125340Y-78344660D01*
X140312784Y-78498491D01*
X140526637Y-78612798D01*
X140758682Y-78683188D01*
X140939528Y-78701000D01*
X141060472Y-78701000D01*
X141241318Y-78683188D01*
X141473363Y-78612798D01*
X141687216Y-78498491D01*
X141874660Y-78344660D01*
X142028491Y-78157216D01*
X142111990Y-78001000D01*
X148503926Y-78001000D01*
X148530000Y-78003568D01*
X148556074Y-78001000D01*
X148556084Y-78001000D01*
X148634094Y-77993317D01*
X148734188Y-77962953D01*
X148826435Y-77913646D01*
X148907290Y-77847290D01*
X148923921Y-77827025D01*
X149407030Y-77343917D01*
X149427290Y-77327290D01*
X149477744Y-77265812D01*
X149493646Y-77246436D01*
X149542953Y-77154188D01*
X149555456Y-77112971D01*
X149573317Y-77054094D01*
X149581000Y-76976084D01*
X149581000Y-76976075D01*
X149583568Y-76950001D01*
X149581000Y-76923927D01*
X149581000Y-76529790D01*
X149624689Y-76525487D01*
X149696508Y-76503701D01*
X149762696Y-76468322D01*
X149820711Y-76420711D01*
X149868322Y-76362696D01*
X149903701Y-76296508D01*
X149925487Y-76224689D01*
X149932843Y-76150000D01*
X149932843Y-71150000D01*
X149925487Y-71075311D01*
X149903701Y-71003492D01*
X149868322Y-70937304D01*
X149820711Y-70879289D01*
X149762696Y-70831678D01*
X149696508Y-70796299D01*
X149624689Y-70774513D01*
X149550000Y-70767157D01*
X148550000Y-70767157D01*
X148475311Y-70774513D01*
X148403492Y-70796299D01*
X148337304Y-70831678D01*
X148279289Y-70879289D01*
X148231678Y-70937304D01*
X148196299Y-71003492D01*
X148174513Y-71075311D01*
X148167157Y-71150000D01*
X148167157Y-76150000D01*
X148174513Y-76224689D01*
X148196299Y-76296508D01*
X148231678Y-76362696D01*
X148279289Y-76420711D01*
X148337304Y-76468322D01*
X148403492Y-76503701D01*
X148475311Y-76525487D01*
X148519001Y-76529790D01*
X148519001Y-76730052D01*
X148310054Y-76939000D01*
X142111990Y-76939000D01*
X142028491Y-76782784D01*
X141874660Y-76595340D01*
X141687216Y-76441509D01*
X141473363Y-76327202D01*
X141241318Y-76256812D01*
X141060472Y-76239000D01*
X140939528Y-76239000D01*
X140758682Y-76256812D01*
X140526637Y-76327202D01*
X140312784Y-76441509D01*
X140125340Y-76595340D01*
X139971509Y-76782784D01*
X139857202Y-76996637D01*
X139786812Y-77228682D01*
X139763044Y-77470000D01*
X139696956Y-77470000D01*
X139673188Y-77228682D01*
X139602798Y-76996637D01*
X139488491Y-76782784D01*
X139334660Y-76595340D01*
X139147216Y-76441509D01*
X138933363Y-76327202D01*
X138701318Y-76256812D01*
X138520472Y-76239000D01*
X138399528Y-76239000D01*
X138218682Y-76256812D01*
X137986637Y-76327202D01*
X137772784Y-76441509D01*
X137585340Y-76595340D01*
X137431509Y-76782784D01*
X137317202Y-76996637D01*
X137246812Y-77228682D01*
X137223044Y-77470000D01*
X137246812Y-77711318D01*
X137298231Y-77880823D01*
X137252976Y-77926078D01*
X137252971Y-77926082D01*
X135520959Y-79658095D01*
X135520959Y-78619987D01*
X138003918Y-76137029D01*
X138003922Y-76137024D01*
X138049177Y-76091769D01*
X138218682Y-76143188D01*
X138399528Y-76161000D01*
X138520472Y-76161000D01*
X138701318Y-76143188D01*
X138933363Y-76072798D01*
X139147216Y-75958491D01*
X139334660Y-75804660D01*
X139488491Y-75617216D01*
X139602798Y-75403363D01*
X139673188Y-75171318D01*
X139696956Y-74930000D01*
X139673188Y-74688682D01*
X139602798Y-74456637D01*
X139488491Y-74242784D01*
X139334660Y-74055340D01*
X139147216Y-73901509D01*
X138933363Y-73787202D01*
X138701318Y-73716812D01*
X138520472Y-73699000D01*
X138399528Y-73699000D01*
X138218682Y-73716812D01*
X137986637Y-73787202D01*
X137772784Y-73901509D01*
X137585340Y-74055340D01*
X137431509Y-74242784D01*
X137317202Y-74456637D01*
X137246812Y-74688682D01*
X137223044Y-74930000D01*
X137246812Y-75171318D01*
X137298231Y-75340823D01*
X137252976Y-75386078D01*
X137252971Y-75386082D01*
X134632930Y-78006124D01*
X134612670Y-78022751D01*
X134596043Y-78043011D01*
X134596042Y-78043012D01*
X134546313Y-78103606D01*
X134497006Y-78195854D01*
X134466643Y-78295948D01*
X134456391Y-78400041D01*
X134458960Y-78426125D01*
X134458959Y-89247373D01*
X134456391Y-89273447D01*
X134458959Y-89299521D01*
X134458959Y-89299530D01*
X134466642Y-89377540D01*
X134497006Y-89477634D01*
X134546313Y-89569882D01*
X134612669Y-89650737D01*
X134632934Y-89667368D01*
X138514565Y-93549000D01*
X134416000Y-93549000D01*
X134416000Y-72612250D01*
X137229000Y-72612250D01*
X137229000Y-73277525D01*
X137243642Y-73351134D01*
X137272362Y-73420471D01*
X137314058Y-73482874D01*
X137367127Y-73535942D01*
X137429529Y-73577638D01*
X137498867Y-73606358D01*
X137572475Y-73621000D01*
X138237750Y-73621000D01*
X138333000Y-73525750D01*
X138333000Y-72517000D01*
X138587000Y-72517000D01*
X138587000Y-73525750D01*
X138682250Y-73621000D01*
X139347525Y-73621000D01*
X139421133Y-73606358D01*
X139490471Y-73577638D01*
X139552873Y-73535942D01*
X139605942Y-73482874D01*
X139647638Y-73420471D01*
X139676358Y-73351134D01*
X139691000Y-73277525D01*
X139691000Y-72612250D01*
X139595750Y-72517000D01*
X138587000Y-72517000D01*
X138333000Y-72517000D01*
X137324250Y-72517000D01*
X137229000Y-72612250D01*
X134416000Y-72612250D01*
X134416000Y-72390000D01*
X139763044Y-72390000D01*
X139786812Y-72631318D01*
X139857202Y-72863363D01*
X139971509Y-73077216D01*
X140125340Y-73264660D01*
X140312784Y-73418491D01*
X140526637Y-73532798D01*
X140758682Y-73603188D01*
X140939528Y-73621000D01*
X141060472Y-73621000D01*
X141241318Y-73603188D01*
X141473363Y-73532798D01*
X141687216Y-73418491D01*
X141874660Y-73264660D01*
X142028491Y-73077216D01*
X142111990Y-72921000D01*
X142176007Y-72921000D01*
X142202081Y-72923568D01*
X142228155Y-72921000D01*
X142228165Y-72921000D01*
X142261318Y-72917735D01*
X141410823Y-73768231D01*
X141241318Y-73716812D01*
X141060472Y-73699000D01*
X140939528Y-73699000D01*
X140758682Y-73716812D01*
X140526637Y-73787202D01*
X140312784Y-73901509D01*
X140125340Y-74055340D01*
X139971509Y-74242784D01*
X139857202Y-74456637D01*
X139786812Y-74688682D01*
X139763044Y-74930000D01*
X139786812Y-75171318D01*
X139857202Y-75403363D01*
X139971509Y-75617216D01*
X140125340Y-75804660D01*
X140312784Y-75958491D01*
X140526637Y-76072798D01*
X140758682Y-76143188D01*
X140939528Y-76161000D01*
X141060472Y-76161000D01*
X141241318Y-76143188D01*
X141473363Y-76072798D01*
X141687216Y-75958491D01*
X141874660Y-75804660D01*
X142028491Y-75617216D01*
X142142798Y-75403363D01*
X142213188Y-75171318D01*
X142236956Y-74930000D01*
X142213188Y-74688682D01*
X142161769Y-74519177D01*
X143249948Y-73431000D01*
X146167157Y-73431000D01*
X146167157Y-76150000D01*
X146174513Y-76224689D01*
X146196299Y-76296508D01*
X146231678Y-76362696D01*
X146279289Y-76420711D01*
X146337304Y-76468322D01*
X146403492Y-76503701D01*
X146475311Y-76525487D01*
X146550000Y-76532843D01*
X147550000Y-76532843D01*
X147624689Y-76525487D01*
X147696508Y-76503701D01*
X147762696Y-76468322D01*
X147820711Y-76420711D01*
X147868322Y-76362696D01*
X147903701Y-76296508D01*
X147925487Y-76224689D01*
X147932843Y-76150000D01*
X147932843Y-71150000D01*
X147925487Y-71075311D01*
X147903701Y-71003492D01*
X147868322Y-70937304D01*
X147820711Y-70879289D01*
X147762696Y-70831678D01*
X147696508Y-70796299D01*
X147624689Y-70774513D01*
X147550000Y-70767157D01*
X146550000Y-70767157D01*
X146475311Y-70774513D01*
X146403492Y-70796299D01*
X146337304Y-70831678D01*
X146279289Y-70879289D01*
X146231678Y-70937304D01*
X146196299Y-71003492D01*
X146174513Y-71075311D01*
X146167157Y-71150000D01*
X146167157Y-72369000D01*
X143056074Y-72369000D01*
X143030000Y-72366432D01*
X143003926Y-72369000D01*
X143003916Y-72369000D01*
X142970762Y-72372265D01*
X145312028Y-70031000D01*
X152194367Y-70031000D01*
X152221704Y-70082144D01*
X152298851Y-70176149D01*
X152392856Y-70253296D01*
X152494000Y-70307359D01*
X152494000Y-70772672D01*
X152475311Y-70774513D01*
X152403492Y-70796299D01*
X152337304Y-70831678D01*
X152279289Y-70879289D01*
X152231678Y-70937304D01*
X152196299Y-71003492D01*
X152174513Y-71075311D01*
X152167157Y-71150000D01*
X152167157Y-76150000D01*
X152174513Y-76224689D01*
X152196299Y-76296508D01*
X152231678Y-76362696D01*
X152279289Y-76420711D01*
X152337304Y-76468322D01*
X152403492Y-76503701D01*
X152475311Y-76525487D01*
X152550000Y-76532843D01*
X153550000Y-76532843D01*
X153624689Y-76525487D01*
X153696508Y-76503701D01*
X153762696Y-76468322D01*
X153820711Y-76420711D01*
X153868322Y-76362696D01*
X153903701Y-76296508D01*
X153925487Y-76224689D01*
X153932843Y-76150000D01*
X153932843Y-71150000D01*
X153925487Y-71075311D01*
X153903701Y-71003492D01*
X153868322Y-70937304D01*
X153820711Y-70879289D01*
X153762696Y-70831678D01*
X153696508Y-70796299D01*
X153624689Y-70774513D01*
X153556000Y-70767748D01*
X153556000Y-70307359D01*
X153657144Y-70253296D01*
X153751149Y-70176149D01*
X153828296Y-70082144D01*
X153869000Y-70005992D01*
X153869000Y-70012525D01*
X153883642Y-70086134D01*
X153912362Y-70155471D01*
X153954058Y-70217874D01*
X154007127Y-70270942D01*
X154069529Y-70312638D01*
X154138867Y-70341358D01*
X154212475Y-70356000D01*
X154552750Y-70356000D01*
X154648000Y-70260750D01*
X154648000Y-69627000D01*
X154902000Y-69627000D01*
X154902000Y-70260750D01*
X154997250Y-70356000D01*
X155337525Y-70356000D01*
X155411133Y-70341358D01*
X155480471Y-70312638D01*
X155542873Y-70270942D01*
X155546565Y-70267250D01*
X164719000Y-70267250D01*
X164719000Y-70832525D01*
X164733642Y-70906133D01*
X164762362Y-70975471D01*
X164804058Y-71037873D01*
X164857126Y-71090942D01*
X164919529Y-71132638D01*
X164988866Y-71161358D01*
X165062475Y-71176000D01*
X167417750Y-71176000D01*
X167513000Y-71080750D01*
X167513000Y-70172000D01*
X164814250Y-70172000D01*
X164719000Y-70267250D01*
X155546565Y-70267250D01*
X155595942Y-70217874D01*
X155637638Y-70155471D01*
X155666358Y-70086134D01*
X155681000Y-70012525D01*
X155681000Y-69722250D01*
X155585750Y-69627000D01*
X154902000Y-69627000D01*
X154648000Y-69627000D01*
X154628000Y-69627000D01*
X154628000Y-69373000D01*
X154648000Y-69373000D01*
X154648000Y-68739250D01*
X154902000Y-68739250D01*
X154902000Y-69373000D01*
X155585750Y-69373000D01*
X155681000Y-69277750D01*
X155681000Y-69257475D01*
X164719000Y-69257475D01*
X164719000Y-69822750D01*
X164814250Y-69918000D01*
X167513000Y-69918000D01*
X167513000Y-69009250D01*
X167417750Y-68914000D01*
X165062475Y-68914000D01*
X164988866Y-68928642D01*
X164919529Y-68957362D01*
X164857126Y-68999058D01*
X164804058Y-69052127D01*
X164762362Y-69114529D01*
X164733642Y-69183867D01*
X164719000Y-69257475D01*
X155681000Y-69257475D01*
X155681000Y-68987475D01*
X155666358Y-68913866D01*
X155637638Y-68844529D01*
X155595942Y-68782126D01*
X155542873Y-68729058D01*
X155480471Y-68687362D01*
X155411133Y-68658642D01*
X155337525Y-68644000D01*
X154997250Y-68644000D01*
X154902000Y-68739250D01*
X154648000Y-68739250D01*
X154552750Y-68644000D01*
X154212475Y-68644000D01*
X154138867Y-68658642D01*
X154069529Y-68687362D01*
X154007127Y-68729058D01*
X153954058Y-68782126D01*
X153912362Y-68844529D01*
X153883642Y-68913866D01*
X153869000Y-68987475D01*
X153869000Y-68994008D01*
X153828296Y-68917856D01*
X153751149Y-68823851D01*
X153657144Y-68746704D01*
X153549895Y-68689378D01*
X153433523Y-68654077D01*
X153312500Y-68642157D01*
X152737500Y-68642157D01*
X152616477Y-68654077D01*
X152500105Y-68689378D01*
X152392856Y-68746704D01*
X152298851Y-68823851D01*
X152221704Y-68917856D01*
X152194367Y-68969000D01*
X145118154Y-68969000D01*
X145092080Y-68966432D01*
X145066006Y-68969000D01*
X145065997Y-68969000D01*
X144987987Y-68976683D01*
X144887893Y-69007047D01*
X144827777Y-69039179D01*
X144795645Y-69056354D01*
X144735051Y-69106083D01*
X144714791Y-69122710D01*
X144698164Y-69142970D01*
X142066758Y-71774377D01*
X142028491Y-71702784D01*
X141874660Y-71515340D01*
X141687216Y-71361509D01*
X141473363Y-71247202D01*
X141241318Y-71176812D01*
X141060472Y-71159000D01*
X140939528Y-71159000D01*
X140758682Y-71176812D01*
X140526637Y-71247202D01*
X140312784Y-71361509D01*
X140125340Y-71515340D01*
X139971509Y-71702784D01*
X139857202Y-71916637D01*
X139786812Y-72148682D01*
X139763044Y-72390000D01*
X134416000Y-72390000D01*
X134416000Y-71502475D01*
X137229000Y-71502475D01*
X137229000Y-72167750D01*
X137324250Y-72263000D01*
X138333000Y-72263000D01*
X138333000Y-71254250D01*
X138587000Y-71254250D01*
X138587000Y-72263000D01*
X139595750Y-72263000D01*
X139691000Y-72167750D01*
X139691000Y-71502475D01*
X139676358Y-71428866D01*
X139647638Y-71359529D01*
X139605942Y-71297126D01*
X139552873Y-71244058D01*
X139490471Y-71202362D01*
X139421133Y-71173642D01*
X139347525Y-71159000D01*
X138682250Y-71159000D01*
X138587000Y-71254250D01*
X138333000Y-71254250D01*
X138237750Y-71159000D01*
X137572475Y-71159000D01*
X137498867Y-71173642D01*
X137429529Y-71202362D01*
X137367127Y-71244058D01*
X137314058Y-71297126D01*
X137272362Y-71359529D01*
X137243642Y-71428866D01*
X137229000Y-71502475D01*
X134416000Y-71502475D01*
X134416000Y-68376000D01*
X170384000Y-68376000D01*
X170384000Y-68973083D01*
G04 #@! TD*
M02*
