M48
;DRILL file {KiCad 5.0.1-33cea8e~68~ubuntu18.04.1} date Mon 12 Nov 2018 02:03:49 PM EST
;FORMAT={-:-/ absolute / metric / decimal}
FMAT,2
METRIC,TZ
T1C1.000
%
G90
G05
M71
T1
X138.46Y-72.39
X138.46Y-74.93
X138.46Y-77.47
X138.46Y-80.01
X138.46Y-82.55
X138.46Y-85.09
X138.46Y-87.63
X141.Y-72.39
X141.Y-74.93
X141.Y-77.47
X141.Y-80.01
X141.Y-82.55
X141.Y-85.09
X141.Y-87.63
T0
M30
