G04 #@! TF.GenerationSoftware,KiCad,Pcbnew,5.0.1-33cea8e~68~ubuntu18.04.1*
G04 #@! TF.CreationDate,2018-11-12T14:03:51-05:00*
G04 #@! TF.ProjectId,RFM95,52464D39352E6B696361645F70636200,rev?*
G04 #@! TF.SameCoordinates,Original*
G04 #@! TF.FileFunction,Profile,NP*
%FSLAX46Y46*%
G04 Gerber Fmt 4.6, Leading zero omitted, Abs format (unit mm)*
G04 Created by KiCad (PCBNEW 5.0.1-33cea8e~68~ubuntu18.04.1) date Mon 12 Nov 2018 02:03:51 PM EST*
%MOMM*%
%LPD*%
G01*
G04 APERTURE LIST*
%ADD10C,0.100000*%
G04 APERTURE END LIST*
D10*
X133985000Y-93980000D02*
X133985000Y-67945000D01*
X170815000Y-93980000D02*
X133985000Y-93980000D01*
X170815000Y-67945000D02*
X170815000Y-93980000D01*
X133985000Y-67945000D02*
X170815000Y-67945000D01*
M02*
